<?xml version="1.0" encoding="UTF-8" standalone="no"?>
<!-- Created with Inkscape (http://www.inkscape.org/) -->

<svg
   width="147.81799mm"
   height="147.81799mm"
   viewBox="0 0 147.818 147.81799"
   version="1.1"
   id="svg5"
   xml:space="preserve"
   inkscape:version="1.2.2 (b0a8486541, 2022-12-01)"
   sodipodi:docname="1password.svg"
   xmlns:inkscape="http://www.inkscape.org/namespaces/inkscape"
   xmlns:sodipodi="http://sodipodi.sourceforge.net/DTD/sodipodi-0.dtd"
   xmlns:xlink="http://www.w3.org/1999/xlink"
   xmlns="http://www.w3.org/2000/svg"
   xmlns:svg="http://www.w3.org/2000/svg"><sodipodi:namedview
     id="namedview7"
     pagecolor="#505050"
     bordercolor="#eeeeee"
     borderopacity="1"
     inkscape:showpageshadow="0"
     inkscape:pageopacity="0"
     inkscape:pagecheckerboard="0"
     inkscape:deskcolor="#505050"
     inkscape:document-units="mm"
     showgrid="false"
     inkscape:zoom="0.84096521"
     inkscape:cx="141.50407"
     inkscape:cy="298.46657"
     inkscape:window-width="1920"
     inkscape:window-height="958"
     inkscape:window-x="0"
     inkscape:window-y="32"
     inkscape:window-maximized="1"
     inkscape:current-layer="layer1" /><defs
     id="defs2"><linearGradient
       inkscape:collect="always"
       id="linearGradient10134"><stop
         style="stop-color:#f2bb57;stop-opacity:1;"
         offset="0"
         id="stop10130" /><stop
         style="stop-color:#eb9d11;stop-opacity:1;"
         offset="1"
         id="stop10132" /></linearGradient><linearGradient
       inkscape:collect="always"
       id="linearGradient10118"><stop
         style="stop-color:#4180f0;stop-opacity:1;"
         offset="0"
         id="stop10114" /><stop
         style="stop-color:#0055d4;stop-opacity:1"
         offset="1"
         id="stop10116" /></linearGradient><linearGradient
       inkscape:collect="always"
       id="linearGradient10110"><stop
         style="stop-color:#b93486;stop-opacity:1;"
         offset="0"
         id="stop10106" /><stop
         style="stop-color:#800080;stop-opacity:1"
         offset="1"
         id="stop10108" /></linearGradient><linearGradient
       inkscape:collect="always"
       id="linearGradient10096"><stop
         style="stop-color:#b93486;stop-opacity:1;"
         offset="0"
         id="stop10092" /><stop
         style="stop-color:#800080;stop-opacity:1"
         offset="1"
         id="stop10094" /></linearGradient><linearGradient
       inkscape:collect="always"
       id="linearGradient10001"><stop
         style="stop-color:#f2f2f2;stop-opacity:1"
         offset="0"
         id="stop9997" /><stop
         style="stop-color:#cccccc;stop-opacity:1"
         offset="1"
         id="stop9999" /></linearGradient><linearGradient
       inkscape:collect="always"
       xlink:href="#linearGradient10001"
       id="linearGradient10003"
       x1="105.8061"
       y1="112.16969"
       x2="105.8061"
       y2="151.79445"
       gradientUnits="userSpaceOnUse" /><linearGradient
       inkscape:collect="always"
       xlink:href="#linearGradient10096"
       id="linearGradient10098"
       x1="66.186287"
       y1="115.03476"
       x2="66.186287"
       y2="120.173"
       gradientUnits="userSpaceOnUse" /><linearGradient
       inkscape:collect="always"
       xlink:href="#linearGradient10110"
       id="linearGradient10112"
       x1="68.720688"
       y1="116.70728"
       x2="63.854698"
       y2="118.12453"
       gradientUnits="userSpaceOnUse" /><linearGradient
       inkscape:collect="always"
       xlink:href="#linearGradient10118"
       id="linearGradient10120"
       x1="66.172546"
       y1="112.11503"
       x2="66.172546"
       y2="121.90264"
       gradientUnits="userSpaceOnUse" /><linearGradient
       inkscape:collect="always"
       xlink:href="#linearGradient10118"
       id="linearGradient10128"
       x1="71.489624"
       y1="115.85199"
       x2="61.460033"
       y2="118.77316"
       gradientUnits="userSpaceOnUse" /><linearGradient
       inkscape:collect="always"
       xlink:href="#linearGradient10134"
       id="linearGradient10136"
       x1="96.283852"
       y1="113.03022"
       x2="99.537994"
       y2="121.19572"
       gradientUnits="userSpaceOnUse" /></defs><g
     inkscape:label="Calque 1"
     inkscape:groupmode="layer"
     id="layer1"
     transform="translate(-37.706726,-47.423195)"><g
       id="g10166"
       transform="matrix(-2.9078269,0,0,2.9078269,411.0209,-255.78419)"><path
         style="fill:url(#linearGradient10003);fill-opacity:1;stroke:none;stroke-width:0.3;stroke-linecap:butt;stroke-linejoin:miter;stroke-dasharray:none;stroke-opacity:1"
         d="m 98.850631,117.92122 -10.160256,3.70762 -9.818897,0.21559 5.576724,4.67224 -1.36869,3.44199 3.694134,1.48143 -1.264216,6.61097 5.59934,-7.73841 c 3.766242,2.03678 7.112349,1.55761 10.42506,0.87844 l 10.86196,23.83482 c 1.21981,0.397 2.43961,-0.76345 3.65942,-1.22303 l 10.87148,-4.04087 -1.44736,-2.85411 -7.79039,2.6529 -0.97472,-2.33102 5.62933,-2.26878 -1.67808,-3.09223 -3.32035,1.12689 -1.0489,-2.61204 2.20227,-0.9505 -1.43788,-3.02091 -7.04871,2.59681 -4.27607,-9.75204 c 3.36579,-2.0215 5.92898,-4.34603 6.34743,-7.4803 l 9.50035,1.41273 1.63503,-0.78987 -6.55634,-3.97219 2.18145,-4.17128 -4.5543,-1.38149 1.13362,-7.01374 -7.64956,8.04718 z"
         id="path302"
         sodipodi:nodetypes="cccccccccccccccccccccccccccccccc" /><path
         style="fill:#ffffff;fill-opacity:1;stroke:#000000;stroke-width:0.3;stroke-linecap:butt;stroke-linejoin:miter;stroke-dasharray:none;stroke-opacity:1"
         d="m 89.092399,125.70981 c 7.793273,-1.95821 14.958111,-5.15902 21.515771,-9.56038 7.53816,7.4796 -15.122394,23.3182 -21.515771,9.56038 z"
         id="path402"
         sodipodi:nodetypes="ccc" /><g
         id="g8523"
         transform="translate(23.907187,-1.3631962)"><circle
           style="fill:url(#linearGradient10120);fill-opacity:1;stroke:none;stroke-width:0.3;stroke-dasharray:none;stroke-opacity:1"
           id="path456"
           cx="66.215828"
           cy="117.4905"
           r="6.1877246" /><circle
           style="fill:url(#linearGradient10098);fill-opacity:1;stroke:#000000;stroke-width:0.3;stroke-dasharray:none;stroke-opacity:1"
           id="circle3826"
           cx="66.215828"
           cy="117.4905"
           r="3.233762" /><circle
           style="fill:#a1bafb;fill-opacity:1;stroke:#000000;stroke-width:0.3;stroke-dasharray:none;stroke-opacity:1"
           id="circle5691"
           cx="67.818878"
           cy="113.10608"
           r="0.85598534" /><circle
           style="fill:#a1bafb;fill-opacity:1;stroke:#000000;stroke-width:0.3;stroke-dasharray:none;stroke-opacity:1"
           id="circle8453"
           cx="70.655228"
           cy="116.02186"
           r="0.85598534" /><circle
           style="fill:#a1bafb;fill-opacity:1;stroke:#000000;stroke-width:0.3;stroke-dasharray:none;stroke-opacity:1"
           id="circle8455"
           cx="69.829643"
           cy="120.54423"
           r="0.85598534" /><circle
           style="fill:#a1bafb;fill-opacity:1;stroke:#000000;stroke-width:0.3;stroke-dasharray:none;stroke-opacity:1"
           id="circle8457"
           cx="65.533165"
           cy="122.21046"
           r="0.85598534" /><circle
           style="fill:#a1bafb;fill-opacity:1;stroke:#000000;stroke-width:0.3;stroke-dasharray:none;stroke-opacity:1"
           id="circle8459"
           cx="61.704144"
           cy="118.6982"
           r="0.85598534" /><circle
           style="fill:#a1bafb;fill-opacity:1;stroke:#000000;stroke-width:0.3;stroke-dasharray:none;stroke-opacity:1"
           id="circle8513"
           cx="62.698238"
           cy="114.3172"
           r="0.85598534" /></g><g
         id="g8541"
         transform="rotate(-73.761525,79.851772,89.557565)"><circle
           style="fill:url(#linearGradient10128);fill-opacity:1;stroke:none;stroke-width:0.3;stroke-dasharray:none;stroke-opacity:1"
           id="circle8525"
           cx="66.215828"
           cy="117.4905"
           r="6.1877246" /><circle
           style="fill:url(#linearGradient10112);fill-opacity:1;stroke:#000000;stroke-width:0.3;stroke-dasharray:none;stroke-opacity:1"
           id="circle8527"
           cx="66.215828"
           cy="117.4905"
           r="3.233762" /><circle
           style="fill:#a1bafb;fill-opacity:1;stroke:#000000;stroke-width:0.3;stroke-dasharray:none;stroke-opacity:1"
           id="circle8529"
           cx="67.818878"
           cy="113.10608"
           r="0.85598534" /><circle
           style="fill:#a1bafb;fill-opacity:1;stroke:#000000;stroke-width:0.3;stroke-dasharray:none;stroke-opacity:1"
           id="circle8531"
           cx="70.655228"
           cy="116.02186"
           r="0.85598534" /><circle
           style="fill:#a1bafb;fill-opacity:1;stroke:#000000;stroke-width:0.3;stroke-dasharray:none;stroke-opacity:1"
           id="circle8533"
           cx="69.829643"
           cy="120.54423"
           r="0.85598534" /><circle
           style="fill:#a1bafb;fill-opacity:1;stroke:#000000;stroke-width:0.3;stroke-dasharray:none;stroke-opacity:1"
           id="circle8535"
           cx="65.533165"
           cy="122.21046"
           r="0.85598534" /><circle
           style="fill:#a1bafb;fill-opacity:1;stroke:#000000;stroke-width:0.3;stroke-dasharray:none;stroke-opacity:1"
           id="circle8537"
           cx="61.704144"
           cy="118.6982"
           r="0.85598534" /><circle
           style="fill:#a1bafb;fill-opacity:1;stroke:#000000;stroke-width:0.3;stroke-dasharray:none;stroke-opacity:1"
           id="circle8539"
           cx="62.698238"
           cy="114.3172"
           r="0.85598534" /></g><path
         style="fill:url(#linearGradient10136);fill-opacity:1;stroke:#000000;stroke-width:0.3;stroke-linecap:butt;stroke-linejoin:miter;stroke-dasharray:none;stroke-opacity:1"
         d="m 95.459745,112.06423 0.380153,5.14634 c -0.824679,1.27292 -0.634663,1.85288 0.246002,2.82292 1.272767,1.48937 3.225046,2.439 4.11861,2.07416 0.83836,-0.3423 1.90527,-2.5776 1.54282,-5.08746 -0.40627,-1.78343 -1.34242,-1.66796 -2.246996,-1.66566 l -3.266305,-3.56171"
         id="path400"
         sodipodi:nodetypes="cccsccc" /><path
         style="fill:none;stroke:#000000;stroke-width:0.3;stroke-linecap:butt;stroke-linejoin:miter;stroke-dasharray:none;stroke-opacity:1"
         d="m 97.888908,122.9241 3.082732,7.70609"
         id="path9923" /><path
         style="fill:none;stroke:#000000;stroke-width:0.3;stroke-linecap:butt;stroke-linejoin:miter;stroke-dasharray:none;stroke-opacity:1"
         d="m 101.54063,121.42972 3.19907,7.59244"
         id="path9925" /><path
         style="fill:none;stroke:#000000;stroke-width:0.3;stroke-linecap:butt;stroke-linejoin:miter;stroke-dasharray:none;stroke-opacity:1"
         d="m 104.37553,119.8621 3.08068,7.29541"
         id="path9927" /><path
         style="fill:none;stroke:#000000;stroke-width:0.3;stroke-linecap:butt;stroke-linejoin:miter;stroke-dasharray:none;stroke-opacity:1"
         d="m 107.42231,118.21037 2.65729,6.32202"
         id="path9929" /><path
         style="fill:none;stroke:#000000;stroke-width:0.3;stroke-linecap:round;stroke-linejoin:miter;stroke-dasharray:none;stroke-opacity:1"
         d="m 109.50599,116.91572 2.20221,4.64364"
         id="path9931" /><path
         style="fill:none;stroke:#000000;stroke-width:0.3;stroke-linecap:round;stroke-linejoin:miter;stroke-dasharray:none;stroke-opacity:1"
         d="m 94.355149,124.30264 2.322888,6.6965"
         id="path9933" /><path
         style="fill:none;stroke:#000000;stroke-width:0.3;stroke-linecap:round;stroke-linejoin:miter;stroke-dasharray:none;stroke-opacity:1"
         d="m 91.479057,125.21636 1.704305,4.81641"
         id="path9935" /></g></g></svg>
