<?xml version="1.0" encoding="UTF-8" standalone="no"?>
<!-- Created with Inkscape (http://www.inkscape.org/) -->

<svg
   width="203.20583mm"
   height="203.20583mm"
   viewBox="0 0 203.20583 203.20583"
   version="1.1"
   id="svg28985"
   inkscape:version="1.2.2 (b0a8486541, 2022-12-01)"
   sodipodi:docname="system-error.svg"
   xmlns:inkscape="http://www.inkscape.org/namespaces/inkscape"
   xmlns:sodipodi="http://sodipodi.sourceforge.net/DTD/sodipodi-0.dtd"
   xmlns:xlink="http://www.w3.org/1999/xlink"
   xmlns="http://www.w3.org/2000/svg"
   xmlns:svg="http://www.w3.org/2000/svg">
  <sodipodi:namedview
     id="namedview28987"
     pagecolor="#505050"
     bordercolor="#eeeeee"
     borderopacity="1"
     inkscape:showpageshadow="0"
     inkscape:pageopacity="0"
     inkscape:pagecheckerboard="0"
     inkscape:deskcolor="#505050"
     inkscape:document-units="mm"
     showgrid="false"
     inkscape:zoom="0.5946522"
     inkscape:cx="293.44884"
     inkscape:cy="435.54871"
     inkscape:window-width="1920"
     inkscape:window-height="958"
     inkscape:window-x="0"
     inkscape:window-y="32"
     inkscape:window-maximized="1"
     inkscape:current-layer="layer1" />
  <defs
     id="defs28982">
    <linearGradient
       inkscape:collect="always"
       xlink:href="#linearGradient1146"
       id="linearGradient16859"
       x1="107.58979"
       y1="14.556531"
       x2="107.58979"
       y2="214.84198"
       gradientUnits="userSpaceOnUse"
       gradientTransform="translate(-3.8394889,20.224638)" />
    <linearGradient
       inkscape:collect="always"
       id="linearGradient1146">
      <stop
         style="stop-color:#132981;stop-opacity:1;"
         offset="0"
         id="stop1142" />
      <stop
         style="stop-color:#2047e0;stop-opacity:1;"
         offset="1"
         id="stop1144" />
    </linearGradient>
  </defs>
  <g
     inkscape:label="Calque 1"
     inkscape:groupmode="layer"
     id="layer1"
     transform="translate(-3.0258408,-32.73925)">
    <circle
       style="fill:none;fill-opacity:1;stroke:url(#linearGradient16859);stroke-width:15;stroke-dasharray:none;stroke-opacity:1"
       id="path14525"
       cx="104.62875"
       cy="134.34216"
       r="94.102913" />
    <g
       aria-label="!"
       transform="scale(-1)"
       id="text32789"
       style="font-size:181.903px;line-height:1.25;fill:#ffffff;stroke-width:4.54759">
      <path
         d="m -126.76408,-79.212983 q 0,-9.237261 6.57267,-15.987568 6.75031,-6.750309 16.16521,-6.750309 9.23726,0 15.987567,6.750309 6.750307,6.750307 6.750307,15.987568 0,9.414902 -6.750307,16.165208 -6.750307,6.572667 -15.987567,6.572667 -9.4149,0 -16.16521,-6.572667 -6.57267,-6.750306 -6.57267,-16.165208 z m 0,-28.422347 v -102.32043 h 45.475754 v 102.32043 z"
         style="font-family:NiseSegaSonic;-inkscape-font-specification:NiseSegaSonic"
         id="path32854" />
    </g>
  </g>
</svg>
