<?xml version="1.0" encoding="UTF-8" standalone="no"?>
<!-- Created with Inkscape (http://www.inkscape.org/) -->

<svg
   width="183.85001mm"
   height="183.85043mm"
   viewBox="0 0 183.85001 183.85043"
   version="1.1"
   id="svg1621"
   xml:space="preserve"
   inkscape:version="1.2.2 (b0a8486541, 2022-12-01)"
   sodipodi:docname="application-pgp-signature.svg"
   xmlns:inkscape="http://www.inkscape.org/namespaces/inkscape"
   xmlns:sodipodi="http://sodipodi.sourceforge.net/DTD/sodipodi-0.dtd"
   xmlns="http://www.w3.org/2000/svg"
   xmlns:svg="http://www.w3.org/2000/svg"><sodipodi:namedview
     id="namedview1623"
     pagecolor="#505050"
     bordercolor="#eeeeee"
     borderopacity="1"
     inkscape:showpageshadow="0"
     inkscape:pageopacity="0"
     inkscape:pagecheckerboard="0"
     inkscape:deskcolor="#505050"
     inkscape:document-units="mm"
     showgrid="false"
     inkscape:zoom="0.5946522"
     inkscape:cx="494.40664"
     inkscape:cy="506.17823"
     inkscape:window-width="1920"
     inkscape:window-height="958"
     inkscape:window-x="0"
     inkscape:window-y="32"
     inkscape:window-maximized="1"
     inkscape:current-layer="layer1" /><defs
     id="defs1618" /><g
     inkscape:label="Calque 1"
     inkscape:groupmode="layer"
     id="layer1"
     transform="translate(-33.910571,-41.56195)"><g
       id="g4869"
       transform="rotate(5.3240774,130.80761,398.83273)"><path
         id="rect4860"
         style="fill:#ffffff;fill-opacity:1;stroke:none;stroke-width:0.165"
         d="M 136.89511,48.247376 H 42.457459 V 221.31226 H 166.74135 V 74.658683 C 163.15662,72.589041 141.37737,52.729639 136.89511,48.247376 Z"
         sodipodi:nodetypes="cccccc" /><path
         id="path4864"
         style="fill:#e6e6e6;fill-opacity:1;stroke:none;stroke-width:0.165"
         d="m 136.89511,48.247376 v 26.411307 h 29.84624 C 161.37614,69.293477 138.52692,49.879189 136.89511,48.247376 Z"
         sodipodi:nodetypes="cccc" /></g><g
       id="g8209"
       transform="matrix(0.52251626,0.54694405,-0.54694405,0.52251626,240.65803,151.68308)"><rect
         style="fill:#00830f;fill-opacity:1;stroke:#000000;stroke-width:3;stroke-linecap:round;stroke-dasharray:none;stroke-opacity:1"
         id="rect8149"
         width="22.774597"
         height="113.87298"
         x="-122.71899"
         y="38.477772" /><path
         sodipodi:type="star"
         style="fill:#ffc860;fill-opacity:1;stroke:#000000;stroke-width:11.3386;stroke-linecap:round;stroke-dasharray:none;stroke-opacity:1"
         id="path8205"
         inkscape:flatsided="true"
         sodipodi:sides="3"
         sodipodi:cx="-542.40021"
         sodipodi:cy="499.78284"
         sodipodi:r1="51.732014"
         sodipodi:r2="25.866007"
         sodipodi:arg1="1.5707963"
         sodipodi:arg2="2.6179939"
         inkscape:rounded="0"
         inkscape:randomized="0"
         d="m -542.40021,551.51485 -44.80124,-77.59802 89.60248,0 z"
         transform="matrix(0.23656405,0,0,0.23656405,16.97313,42.851094)"
         inkscape:transform-center-x="-3.113968e-06"
         inkscape:transform-center-y="3.0594808" /></g><path
       style="fill:none;stroke:#000000;stroke-width:3;stroke-linecap:round;stroke-linejoin:miter;stroke-dasharray:none;stroke-opacity:1"
       d="m 86.89328,185.58143 h 74.04716"
       id="path8211" /></g></svg>
