<?xml version="1.0" encoding="UTF-8" standalone="no"?>
<!-- Created with Inkscape (http://www.inkscape.org/) -->

<svg
   width="183.85001mm"
   height="183.85043mm"
   viewBox="0 0 183.85001 183.85043"
   version="1.1"
   id="svg1621"
   xml:space="preserve"
   inkscape:version="1.2.2 (b0a8486541, 2022-12-01)"
   sodipodi:docname="document-page-setup-symbolic.svg"
   xmlns:inkscape="http://www.inkscape.org/namespaces/inkscape"
   xmlns:sodipodi="http://sodipodi.sourceforge.net/DTD/sodipodi-0.dtd"
   xmlns="http://www.w3.org/2000/svg"
   xmlns:svg="http://www.w3.org/2000/svg"><sodipodi:namedview
     id="namedview1623"
     pagecolor="#505050"
     bordercolor="#eeeeee"
     borderopacity="1"
     inkscape:showpageshadow="0"
     inkscape:pageopacity="0"
     inkscape:pagecheckerboard="0"
     inkscape:deskcolor="#505050"
     inkscape:document-units="mm"
     showgrid="false"
     inkscape:zoom="0.84096521"
     inkscape:cx="30.322301"
     inkscape:cy="346.03096"
     inkscape:window-width="1920"
     inkscape:window-height="966"
     inkscape:window-x="0"
     inkscape:window-y="32"
     inkscape:window-maximized="1"
     inkscape:current-layer="layer1" /><defs
     id="defs1618" /><g
     inkscape:label="Calque 1"
     inkscape:groupmode="layer"
     id="layer1"
     transform="translate(-33.910571,-41.56195)"><g
       id="g4869"
       transform="rotate(5.3240774,130.80761,398.83273)"><path
         id="rect4860"
         style="fill:#ffffff;fill-opacity:1;stroke:none;stroke-width:0.165"
         d="M 136.89511,48.247376 H 42.457459 V 221.31226 H 166.74135 V 74.658683 C 163.15662,72.589041 141.37737,52.729639 136.89511,48.247376 Z"
         sodipodi:nodetypes="cccccc" /><path
         id="path4864"
         style="fill:#e6e6e6;fill-opacity:1;stroke:none;stroke-width:0.165"
         d="m 136.89511,48.247376 v 26.411307 h 29.84624 C 161.37614,69.293477 138.52692,49.879189 136.89511,48.247376 Z"
         sodipodi:nodetypes="cccc" /></g><path
       id="path69248"
       style="fill:#c9cacb;fill-opacity:1;stroke:#000000;stroke-width:1.22141px;stroke-linecap:butt;stroke-linejoin:miter;stroke-opacity:1"
       d="m 151.6163,85.691278 -14.48764,5.510714 -5.53932,13.905558 3.16567,11.62258 -29.2974,43.75395 c -7.911367,-0.19902 -16.9143,4.87593 -17.724881,14.61648 -0.839841,10.09225 12.118887,18.10024 18.998781,16.09787 10.23431,-2.97865 12.09528,-13.93113 10.65403,-22.77754 l 32.33186,-44.69385 12.91788,-2.72911 8.25174,-18.54078 -5.86137,-10.508458 0.62265,8.256498 -7.91298,11.15258 -6.39097,1.57926 -11.49136,-9.23221 1.28107,-9.788025 z m -44.15957,83.018262 5.19579,6.68919 -4.50875,7.92729 -7.44778,0.37929 -5.849454,-7.05176 3.857487,-7.76268 z"
       sodipodi:nodetypes="cccccsscccccccccccccccccc" /></g></svg>
