<?xml version="1.0" encoding="UTF-8" standalone="no"?>
<!-- Created with Inkscape (http://www.inkscape.org/) -->

<svg
   width="101.178mm"
   height="101.178mm"
   viewBox="0 0 101.178 101.178"
   version="1.1"
   id="svg5"
   xml:space="preserve"
   inkscape:version="1.2.2 (b0a8486541, 2022-12-01)"
   sodipodi:docname="folder-copy.svg"
   xmlns:inkscape="http://www.inkscape.org/namespaces/inkscape"
   xmlns:sodipodi="http://sodipodi.sourceforge.net/DTD/sodipodi-0.dtd"
   xmlns="http://www.w3.org/2000/svg"
   xmlns:svg="http://www.w3.org/2000/svg"><sodipodi:namedview
     id="namedview7"
     pagecolor="#505050"
     bordercolor="#eeeeee"
     borderopacity="1"
     inkscape:showpageshadow="0"
     inkscape:pageopacity="0"
     inkscape:pagecheckerboard="0"
     inkscape:deskcolor="#505050"
     inkscape:document-units="mm"
     showgrid="false"
     showguides="true"
     inkscape:zoom="1.6819304"
     inkscape:cx="37.45696"
     inkscape:cy="187.87936"
     inkscape:window-width="1920"
     inkscape:window-height="958"
     inkscape:window-x="0"
     inkscape:window-y="32"
     inkscape:window-maximized="1"
     inkscape:current-layer="layer2" /><defs
     id="defs2" /><g
     inkscape:groupmode="layer"
     id="layer2"
     inkscape:label="Calque 2"
     transform="translate(-61.353696,-4.9528561)"><path
       style="fill:#d45500;fill-opacity:1;stroke:none;stroke-width:1.83498px;stroke-linecap:butt;stroke-linejoin:miter;stroke-opacity:1"
       d="M 81.65468,15.53619 73.713625,26.6626 V 84.946236 H 162.53193 V 26.41471 H 132.76585 L 126.5732,15.688719 Z"
       id="path12783"
       sodipodi:nodetypes="cccccccc" /><path
       style="fill:#ef922a;fill-opacity:1;stroke:none;stroke-width:1.83498px;stroke-linecap:butt;stroke-linejoin:miter;stroke-opacity:1"
       d="m 69.294751,26.387941 -7.941055,11.12641 V 95.797987 H 150.172 V 37.266461 H 120.40592 L 114.21327,26.54047 Z"
       id="path3163"
       sodipodi:nodetypes="cccccccc" /><path
       id="rect17255"
       style="fill:#ffffff;fill-opacity:1;stroke:none;stroke-width:4.99999;stroke-dasharray:none"
       d="m 129.21836,62.560986 v 12.441618 h -12.44161 v 6.220809 h 12.44161 V 93.66503 h 6.22081 V 81.223413 h 12.44162 V 75.002604 H 135.43917 V 62.560986 Z" /></g></svg>
