<?xml version="1.0" encoding="UTF-8" standalone="no"?>
<!-- Created with Inkscape (http://www.inkscape.org/) -->

<svg
   width="183.85001mm"
   height="183.85043mm"
   viewBox="0 0 183.85001 183.85043"
   version="1.1"
   id="svg1621"
   xml:space="preserve"
   inkscape:version="1.2.2 (b0a8486541, 2022-12-01)"
   sodipodi:docname="application-x-gameboy-rom.svg"
   xmlns:inkscape="http://www.inkscape.org/namespaces/inkscape"
   xmlns:sodipodi="http://sodipodi.sourceforge.net/DTD/sodipodi-0.dtd"
   xmlns:xlink="http://www.w3.org/1999/xlink"
   xmlns="http://www.w3.org/2000/svg"
   xmlns:svg="http://www.w3.org/2000/svg"><sodipodi:namedview
     id="namedview1623"
     pagecolor="#505050"
     bordercolor="#eeeeee"
     borderopacity="1"
     inkscape:showpageshadow="0"
     inkscape:pageopacity="0"
     inkscape:pagecheckerboard="0"
     inkscape:deskcolor="#505050"
     inkscape:document-units="mm"
     showgrid="false"
     inkscape:zoom="0.5946522"
     inkscape:cx="119.39752"
     inkscape:cy="393.50733"
     inkscape:window-width="1920"
     inkscape:window-height="958"
     inkscape:window-x="0"
     inkscape:window-y="32"
     inkscape:window-maximized="1"
     inkscape:current-layer="layer1" /><defs
     id="defs1618"><clipPath
       clipPathUnits="userSpaceOnUse"
       id="clipPath3444">
      <path
   d="M 11.52,162 C 11.52,81.677 135.307,16.561 288,16.561 l 0,0 c 152.693,0 276.481,65.116 276.481,145.439 l 0,0 c 0,80.322 -123.788,145.439 -276.481,145.439 l 0,0 C 135.307,307.439 11.52,242.322 11.52,162"
   id="path3446" />
    </clipPath><radialGradient
       cx="0"
       cy="0"
       fx="0"
       fy="0"
       gradientTransform="matrix(363.05789,0,0,-363.05789,177.52002,256.30713)"
       gradientUnits="userSpaceOnUse"
       id="radialGradient3452"
       r="1"
       spreadMethod="pad">
      <stop
   id="stop3454"
   offset="0"
   style="stop-opacity:1;stop-color:#aeb2d5" />
      <stop
   id="stop3456"
   offset="0.3"
   style="stop-opacity:1;stop-color:#aeb2d5" />
      <stop
   id="stop3458"
   offset="0.75"
   style="stop-opacity:1;stop-color:#484c89" />
      <stop
   id="stop3460"
   offset="1"
   style="stop-opacity:1;stop-color:#484c89" />
    </radialGradient><clipPath
       clipPathUnits="userSpaceOnUse"
       id="clipPath3468">
      <path
   d="M 0,324 576,324 576,0 0,0 0,324 Z"
   id="path3470" />
    </clipPath><clipPath
       clipPathUnits="userSpaceOnUse"
       id="clipPath3480">
      <path
   d="M 0,324 576,324 576,0 0,0 0,324 Z"
   id="path3482" />
    </clipPath><linearGradient
       id="linearGradient2795"><stop
         style="stop-color:#b8b8b8;stop-opacity:0.49803922;"
         offset="0"
         id="stop2797" /><stop
         style="stop-color:#7f7f7f;stop-opacity:0;"
         offset="1"
         id="stop2799" /></linearGradient><linearGradient
       id="linearGradient2787"><stop
         style="stop-color:#7f7f7f;stop-opacity:0.5;"
         offset="0"
         id="stop2789" /><stop
         style="stop-color:#7f7f7f;stop-opacity:0;"
         offset="1"
         id="stop2791" /></linearGradient><linearGradient
       id="linearGradient3676"><stop
         style="stop-color:#b2b2b2;stop-opacity:0.5;"
         offset="0"
         id="stop3678" /><stop
         style="stop-color:#b3b3b3;stop-opacity:0;"
         offset="1"
         id="stop3680" /></linearGradient><linearGradient
       id="linearGradient3236"><stop
         style="stop-color:#f4f4f4;stop-opacity:1"
         offset="0"
         id="stop3244" /><stop
         style="stop-color:white;stop-opacity:1"
         offset="1"
         id="stop3240" /></linearGradient><linearGradient
       id="linearGradient4671"><stop
         style="stop-color:#ffd43b;stop-opacity:1;"
         offset="0"
         id="stop4673" /><stop
         style="stop-color:#ffe873;stop-opacity:1"
         offset="1"
         id="stop4675" /></linearGradient><linearGradient
       id="linearGradient4689"><stop
         style="stop-color:#5a9fd4;stop-opacity:1;"
         offset="0"
         id="stop4691" /><stop
         style="stop-color:#306998;stop-opacity:1;"
         offset="1"
         id="stop4693" /></linearGradient><linearGradient
       x1="224.23996"
       y1="144.75717"
       x2="-65.308502"
       y2="144.75717"
       id="linearGradient2987"
       xlink:href="#linearGradient4671"
       gradientUnits="userSpaceOnUse"
       gradientTransform="translate(100.2702,99.61116)" /><linearGradient
       x1="172.94208"
       y1="77.475983"
       x2="26.670298"
       y2="76.313133"
       id="linearGradient2990"
       xlink:href="#linearGradient4689"
       gradientUnits="userSpaceOnUse"
       gradientTransform="translate(100.2702,99.61116)" /><linearGradient
       inkscape:collect="always"
       xlink:href="#linearGradient4671"
       id="linearGradient2255"
       gradientUnits="userSpaceOnUse"
       gradientTransform="matrix(0.562541,0,0,0.567972,-11.5974,-7.60954)"
       x1="224.23996"
       y1="144.75717"
       x2="-65.308502"
       y2="144.75717" /><linearGradient
       inkscape:collect="always"
       xlink:href="#linearGradient4689"
       id="linearGradient2258"
       gradientUnits="userSpaceOnUse"
       gradientTransform="matrix(0.562541,0,0,0.567972,-11.5974,-7.60954)"
       x1="172.94208"
       y1="76.176224"
       x2="26.670298"
       y2="76.313133" /><radialGradient
       inkscape:collect="always"
       xlink:href="#linearGradient2795"
       id="radialGradient2801"
       cx="61.518883"
       cy="132.28575"
       fx="61.518883"
       fy="132.28575"
       r="29.036913"
       gradientTransform="matrix(1,0,0,0.177966,0,108.7434)"
       gradientUnits="userSpaceOnUse" /></defs><g
     inkscape:label="Calque 1"
     inkscape:groupmode="layer"
     id="layer1"
     transform="translate(-33.910571,-41.56195)"><g
       id="g4869"
       transform="rotate(5.3240774,130.80761,398.83273)"><path
         id="rect4860"
         style="fill:#ffffff;fill-opacity:1;stroke:none;stroke-width:0.165"
         d="M 136.89511,48.247376 H 42.457459 V 221.31226 H 166.74135 V 74.658683 C 163.15662,72.589041 141.37737,52.729639 136.89511,48.247376 Z"
         sodipodi:nodetypes="cccccc" /><path
         id="path4864"
         style="fill:#e6e6e6;fill-opacity:1;stroke:none;stroke-width:0.165"
         d="m 136.89511,48.247376 v 26.411307 h 29.84624 C 161.37614,69.293477 138.52692,49.879189 136.89511,48.247376 Z"
         sodipodi:nodetypes="cccc" /></g><g
       id="g1878"
       transform="matrix(0.09039337,0,0,0.09039337,77.514529,126.87658)"><polyline
         points="1174.2,20.4 1174.2,27.6 1158.2,37.5 1174.2,37.5 1174.2,44.6 1151.3,44.6 1151.3,37.5 1167.3,27.5 1151.3,27.5   1151.3,20.4 1174.2,20.4 "
         id="polyline1825" /><polyline
         points="1171.9,83.1 1171.9,90 1168.7,90 1168.7,93.8 1166.5,93.8 1166.5,90 1151.3,90 1151.3,83.1 1166.5,83.1   1166.5,79.4 1168.7,79.4 1168.7,83.1 1171.9,83.1 "
         id="polyline1827" /><rect
         x="1151.3"
         y="48.5"
         width="15.2"
         height="6.9000001"
         id="rect1829" /><rect
         x="1169.5"
         y="48.5"
         width="4.6999998"
         height="6.9000001"
         id="rect1831" /><path
         d="m 1167.6,169.5 c 0,-5.6 -3.8,-10.1 -8.6,-10.1 -4.7,0 -8.6,4.5 -8.6,10.1 0,5.6 3.9,10.1 8.6,10.1 4.7,-0.1 8.6,-4.6 8.6,-10.1 m -8.6,2.7 c 0,0 -2.3,0 -3.2,0 -2.4,0 -3.4,-1.4 -3.4,-2.8 0,-1.4 1,-2.8 3.4,-2.8 0.9,0 3.3,0 3.3,0 0,0 2.3,0 3.2,0 2.4,0 3.4,1.4 3.4,2.8 0,1.4 -1,2.8 -3.4,2.8 -1,0 -2.7,0 -3.3,0 z"
         id="path1833" /><path
         d="m 1159,150.4 c 0,0 1.9,0 2.7,0 2.4,0 3,-1.6 3,-2.7 0,-1.1 -0.6,-2.7 -3,-2.7 -0.8,0 -2.7,0 -2.7,0 0,0 -1.9,0 -2.7,0 -2.4,0 -3,1.6 -3,2.7 0,1.1 0.6,2.7 3,2.7 0.9,0 2.7,0 2.7,0 m 15.2,-0.1 v 6.8 h -22.9 v -6.9 c 0,0 0.7,0 0.9,0 -1.7,-2.6 -1.7,-5.6 -0.6,-8 0.3,-0.6 2.2,-4.7 7.6,-4.7 4,0 8.4,3.8 8,8.8 -0.2,1.6 -0.8,2.8 -1.4,3.9 3.5,0.1 8.4,0.1 8.4,0.1 z"
         id="path1835" /><path
         d="m 1167.2,71.6 c 0.1,2.6 -1.6,7.8 -7.7,7.8 -1.1,0 -8.3,0 -8.3,0 v -6.9 c 0,0 9.1,0 10,0 1.3,0 2.8,-1.3 2.8,-3.2 0,-1.9 -1.4,-3.3 -2.8,-3.3 -0.7,0 -10,0 -10,0 v -6.9 h 15.2 V 66 c 0,0 -1.2,0 -1.6,0 1.4,1.4 2.4,3.3 2.4,5.6"
         id="path1837" /><path
         d="m 1167.2,127.7 c 0.1,2.6 -1.6,7.8 -7.7,7.8 -1.1,0 -8.3,0 -8.3,0 v -6.9 c 0,0 9.1,0 10,0 1.3,0 2.8,-1.3 2.8,-3.1 0,-1.9 -1.4,-3.3 -2.8,-3.3 -0.7,0 -10,0 -10,0 v -6.8 h 15.2 v 6.8 c 0,0 -1.2,0 -1.6,0 1.4,1.3 2.4,3.2 2.4,5.5"
         id="path1839" /><path
         d="m 1156.6,105.9 c 0,0 -0.1,0 -0.9,0 -2.8,0 -3.4,-1.8 -3.4,-2.9 0,-1 0.6,-2.9 3.4,-2.9 0.8,0 3.1,0 3.1,0 0,0 0,13 0,13 4.7,0 8.6,-4.6 8.6,-10.2 0,-5.6 -3.8,-10.2 -8.6,-10.2 -4.8,0 -8.6,4.6 -8.6,10.2 0,4.7 2.6,8.6 6.2,9.8 v -6.8 m 4.8,-5.7 c 1.3,0 2.2,0 3,0.5 0.9,0.5 1.4,1.5 1.4,2.4 0,0.9 -0.4,1.9 -1.4,2.4 -0.8,0.4 -1.7,0.4 -3,0.4 z"
         id="path1841" /><path
         d="m 1170.8,180 v 0.5 c 0,0.5 0.2,0.8 0.6,0.8 0.4,0 0.6,-0.3 0.6,-0.9 V 180 h -1.2 m -0.3,3.4 c -1.6,0 -2.9,-1.3 -2.9,-2.9 0,-1.6 1.3,-2.9 2.9,-2.9 1.6,0 2.8,1.3 2.8,2.9 0,1.6 -1.2,2.9 -2.8,2.9 z m 3.5,-2.9 c 0,-1.9 -1.6,-3.5 -3.5,-3.5 -2,0 -3.5,1.6 -3.5,3.5 0,2 1.6,3.5 3.5,3.5 1.9,0.1 3.5,-1.5 3.5,-3.5 z m -1.5,0.1 c 0,1.1 -0.4,1.7 -1.1,1.7 -0.5,0 -0.9,-0.3 -1.1,-0.9 l -1.7,0.9 v -1 l 1.6,-0.7 V 180 h -1.6 v -0.9 h 3.9 z"
         id="path1843" /><path
         d="M 1144.3,174.4 V 25.1 c 0,-10.2 8.3,-18.4 18.4,-18.4 10.1,0 18.4,8.3 18.4,18.4 v 149.3 c 0,10.2 -8.3,18.5 -18.4,18.5 -10.2,0 -18.4,-8.3 -18.4,-18.5 m 42.7,0 V 25.1 c 0,-13.4 -10.9,-24.3 -24.3,-24.3 -13.4,0 -24.3,10.8 -24.3,24.3 v 149.3 c 0,13.5 10.9,24.3 24.3,24.3 13.4,0.1 24.3,-10.8 24.3,-24.3 z"
         id="path1845" /><path
         d="m 215.7,100.6 16.4,-36.6 7.2,36.6 H 215.7 M 447.8,4.9 403.3,108.4 383.6,4.9 H 345.3 L 290.8,157.4 265.3,4.9 h -47.8 l -72.4,164.4 10.8,-68.7 H 84 L 78.3,136 h 30.2 L 105,154.9 C 87.8,162 58.6,159.3 46.1,136.9 38.2,122.7 30.8,91.1 64.1,62 91.3,38.3 138.3,34 165.4,46.4 c 0,0 3.4,-19.9 6,-38.3 -52.1,-18 -92.6,-3 -119.7,13.8 -37.1,22.7 -54.9,57.6 -50,105 5.5,54.9 76.6,89.6 136.9,54.6 0.7,-0.3 1,-0.6 1.6,-0.7 l -5.8,12.8 h 40.5 l 25.5,-56.5 h 44.8 l 9.8,56.5 h 66 L 354.6,88.1 382.2,193.6 H 408 l 44.3,-116.8 17.5,117.5 h 38.7 L 494.4,4.9 Z"
         id="path1847" /><polyline
         points="508.5,194.4 616.6,194.4 623.1,154 555.5,154 560.8,120.3 619.7,120.3 626.1,79.8 566.7,79.8 571.8,46.3   639.5,46.3 645.9,5.8 538.6,5.8 508.5,194.4 "
         id="polyline1849" /><polyline
         points="1043.8,65.1 1019.6,3.6 975.2,3.6 1021,103.1 1006.8,192.2 1045.7,192.2 1057.5,113.4 1127.4,3.6 1082,3.6   1043.8,65.1 "
         id="polyline1851" /><path
         d="m 952.4,117.5 c -10.4,31.2 -35.6,49.4 -56.1,40.1 -20.4,-9.1 -28.7,-42 -18.2,-73.4 10.5,-31.5 35.6,-49.3 56,-40.2 20.5,9.2 28.8,42.1 18.3,73.5 M 937.3,6.6 c -43,-9.9 -87.7,24.3 -99.8,76.4 -11.9,52.2 13.1,102.5 56,112.5 43,9.8 87.6,-24.4 99.8,-76.5 11.9,-52.2 -13.2,-102.5 -56,-112.4 z"
         id="path1853" /><path
         d="m 761.3,82 c -21.3,0 -26.8,0 -26.8,0 l 5.9,-35 c 0,0 0.8,0 25.2,0 27.4,0 21.8,35 -4.3,35 m -4.7,76.2 c -21.4,0 -34.2,0 -34.2,0 l 6,-37.6 c 0,0 8.1,0 32.4,0 30.9,0 30,37.6 -4.2,37.6 z M 779.3,7.1 c -20.9,-0.3 -72.6,0 -72.6,0 h 0.4 l -30,187.3 c 0,0 62.1,0 87.3,0 36,0 88.5,-52.9 40.6,-96.1 49,-50.9 0.4,-90.6 -25.7,-91.2 z"
         id="path1855" /></g></g></svg>
