<?xml version="1.0" encoding="UTF-8" standalone="no"?>
<!-- Created with Inkscape (http://www.inkscape.org/) -->

<svg
   width="93.619904mm"
   height="93.969337mm"
   viewBox="0 0 93.619904 93.969337"
   version="1.1"
   id="svg5"
   inkscape:version="1.2.2 (b0a8486541, 2022-12-01)"
   sodipodi:docname="preferences-system-search.svg"
   xmlns:inkscape="http://www.inkscape.org/namespaces/inkscape"
   xmlns:sodipodi="http://sodipodi.sourceforge.net/DTD/sodipodi-0.dtd"
   xmlns:xlink="http://www.w3.org/1999/xlink"
   xmlns="http://www.w3.org/2000/svg"
   xmlns:svg="http://www.w3.org/2000/svg">
  <sodipodi:namedview
     id="namedview7"
     pagecolor="#505050"
     bordercolor="#eeeeee"
     borderopacity="1"
     inkscape:showpageshadow="0"
     inkscape:pageopacity="0"
     inkscape:pagecheckerboard="0"
     inkscape:deskcolor="#505050"
     inkscape:document-units="mm"
     showgrid="false"
     inkscape:zoom="0.84096521"
     inkscape:cx="65.995596"
     inkscape:cy="224.74176"
     inkscape:window-width="1920"
     inkscape:window-height="958"
     inkscape:window-x="0"
     inkscape:window-y="32"
     inkscape:window-maximized="1"
     inkscape:current-layer="layer1" />
  <defs
     id="defs2">
    <linearGradient
       inkscape:collect="always"
       xlink:href="#linearGradient711"
       id="linearGradient618"
       x1="-14.852386"
       y1="122.2876"
       x2="4.7239103"
       y2="122.3312"
       gradientUnits="userSpaceOnUse" />
    <linearGradient
       inkscape:collect="always"
       id="linearGradient711">
      <stop
         style="stop-color:#008080;stop-opacity:1"
         offset="0"
         id="stop707" />
      <stop
         style="stop-color:#5d6c53;stop-opacity:1"
         offset="1"
         id="stop709" />
    </linearGradient>
    <linearGradient
       inkscape:collect="always"
       xlink:href="#linearGradient717"
       id="linearGradient719"
       x1="-28.097198"
       y1="71.044411"
       x2="15.696089"
       y2="67.882835"
       gradientUnits="userSpaceOnUse" />
    <linearGradient
       inkscape:collect="always"
       id="linearGradient717">
      <stop
         style="stop-color:#ffffff;stop-opacity:0.66042084;"
         offset="0"
         id="stop713" />
      <stop
         style="stop-color:#ffffff;stop-opacity:0.29794866;"
         offset="1"
         id="stop715" />
    </linearGradient>
  </defs>
  <g
     inkscape:label="Calque 1"
     inkscape:groupmode="layer"
     id="layer1"
     transform="translate(-60.06629,-118.39715)">
    <g
       id="g25869"
       transform="rotate(44.872387,-38.396184,265.54123)">
      <rect
         style="fill:url(#linearGradient618);fill-opacity:1;stroke:none;stroke-width:6.00001;stroke-linejoin:miter;stroke-dasharray:none;stroke-opacity:1"
         id="rect25623"
         width="10.422627"
         height="57.56942"
         x="-11.322284"
         y="95.608437" />
      <circle
         style="fill:url(#linearGradient719);fill-opacity:1;stroke:#217867;stroke-width:6;stroke-linejoin:miter;stroke-dasharray:none;stroke-opacity:1"
         id="path25569"
         cx="-6.1815372"
         cy="68.713448"
         r="27.403431" />
    </g>
  </g>
</svg>
