<?xml version="1.0" encoding="UTF-8" standalone="no"?>
<!-- Created with Inkscape (http://www.inkscape.org/) -->

<svg
   width="89.922997mm"
   height="89.922997mm"
   viewBox="0 0 89.922997 89.922996"
   version="1.1"
   id="svg115679"
   inkscape:version="1.2.2 (b0a8486541, 2022-12-01)"
   sodipodi:docname="preferences-desktop-emoticons.svg"
   xmlns:inkscape="http://www.inkscape.org/namespaces/inkscape"
   xmlns:sodipodi="http://sodipodi.sourceforge.net/DTD/sodipodi-0.dtd"
   xmlns:xlink="http://www.w3.org/1999/xlink"
   xmlns="http://www.w3.org/2000/svg"
   xmlns:svg="http://www.w3.org/2000/svg">
  <sodipodi:namedview
     id="namedview115681"
     pagecolor="#505050"
     bordercolor="#eeeeee"
     borderopacity="1"
     inkscape:showpageshadow="0"
     inkscape:pageopacity="0"
     inkscape:pagecheckerboard="0"
     inkscape:deskcolor="#505050"
     inkscape:document-units="mm"
     showgrid="false"
     inkscape:zoom="0.5946522"
     inkscape:cx="74.833659"
     inkscape:cy="280.83643"
     inkscape:window-width="1920"
     inkscape:window-height="966"
     inkscape:window-x="0"
     inkscape:window-y="32"
     inkscape:window-maximized="1"
     inkscape:current-layer="layer1" />
  <defs
     id="defs115676">
    <linearGradient
       inkscape:collect="always"
       xlink:href="#linearGradient2723"
       id="linearGradient2725"
       x1="185.88081"
       y1="16.810181"
       x2="185.88081"
       y2="40.403919"
       gradientUnits="userSpaceOnUse" />
    <linearGradient
       inkscape:collect="always"
       id="linearGradient2723">
      <stop
         style="stop-color:#f590cc;stop-opacity:1;"
         offset="0"
         id="stop2719" />
      <stop
         style="stop-color:#f9bae0;stop-opacity:1;"
         offset="1"
         id="stop2721" />
    </linearGradient>
  </defs>
  <g
     inkscape:label="Calque 1"
     inkscape:groupmode="layer"
     id="layer1"
     transform="translate(-54.346795,-55.95059)">
    <g
       id="g1043"
       inkscape:label="amy"
       transform="matrix(2.212107,0,0,2.212107,-307.23463,40.177362)">
      <rect
         style="fill:#ffffff;fill-opacity:1;stroke:none;stroke-width:1.265;stroke-linecap:round"
         id="rect1039"
         width="22.05953"
         height="15.069598"
         x="173.02785"
         y="23.912519" />
      <path
         style="fill:url(#linearGradient2725);fill-opacity:1;stroke-width:0.0565664"
         d="m 190.9968,44.705486 c -0.074,-0.493338 0.14511,-2.099392 0.44756,-3.280928 l 0.0394,-0.154 -0.21787,0.112553 c -0.37739,0.194968 -2.06496,0.888567 -2.53708,1.042768 -1.19799,0.391257 -2.22042,0.539739 -3.69635,0.536794 -2.24053,-0.0046 -5.00609,-0.656929 -6.30419,-1.48731 -0.38816,-0.2483 -0.35855,-0.313232 -0.40826,0.895128 -0.0426,1.035226 -0.0921,1.257002 -0.29794,1.335281 -0.42605,0.161976 -1.49571,-0.431621 -3.12452,-1.733917 -1.30786,-1.045682 -2.5245,-2.518749 -3.00672,-3.640422 -0.21307,-0.495595 -0.60128,-1.680531 -0.64117,-1.956977 l -0.0408,-0.282838 -0.36463,0.395971 c -0.20056,0.217781 -0.47135,0.535967 -0.60178,0.707077 -0.7946,1.04249 -1.5504,1.87502 -1.92514,2.120561 -0.27159,0.17795 -0.3566,-0.02519 -0.49569,-1.184581 -0.0627,-0.522744 -0.0412,-2.229945 0.0385,-3.05722 0.12537,-1.301192 0.37112,-2.595668 0.65813,-3.466776 0.12595,-0.382261 0.21933,-0.703175 0.20751,-0.713129 -0.0118,-0.01 -0.51785,0.106433 -1.12452,0.258648 -1.41961,0.356185 -3.51651,0.781114 -3.85652,0.781515 -0.31989,4.25e-4 -0.31452,0.01693 -0.26206,-0.80987 0.11604,-1.828449 1.14175,-4.060644 2.44459,-5.320049 0.47653,-0.460648 1.19005,-1.025727 1.56085,-1.236151 0.17112,-0.0971 0.44269,-0.269521 0.60351,-0.383149 l 0.2924,-0.206591 -0.68836,-0.380808 c -1.12883,-0.624486 -2.41926,-1.467224 -3.05294,-1.993794 -0.17396,-0.144556 -0.66172,-0.701119 -0.66172,-0.755062 0,-0.01863 0.16573,-0.142771 0.36829,-0.275951 1.38334,-0.909495 3.40825,-1.431297 6.19341,-1.595993 1.19507,-0.07064 2.01886,-0.0077 3.07226,0.234799 0.39861,0.09177 0.75696,0.147385 0.79634,0.12359 0.0393,-0.0238 0.25046,-0.246894 0.46908,-0.495789 0.50244,-0.572034 0.83915,-0.885267 1.38769,-1.290936 1.57788,-1.166891 3.50537,-2.17642 5.30856,-2.780357 0.60859,-0.203831 1.56314,-0.472263 2.12124,-0.596517 1.74152,-0.387717 2.93317,-0.476112 4.18061,-0.310118 l 0.62042,0.08256 0.23795,-0.210941 c 0.13088,-0.116016 0.60261,-0.526948 1.0483,-0.913181 0.44569,-0.386233 1.19703,-1.044013 1.66966,-1.461738 0.47262,-0.417718 0.99446,-0.861124 1.15962,-0.985348 0.85008,-0.6393926 1.69128,-0.7923036 2.11253,-0.3840066 0.63785,0.6182256 1.17006,2.4014186 1.41752,4.7495136 0.0804,0.763107 0.16082,1.131333 0.247,1.131333 0.0549,0 0.58866,0.348086 1.24652,0.812993 2.4626,1.740301 5.2465,5.34872 6.07168,7.86995 0.25258,0.771708 0.31738,1.058804 0.37661,1.668707 0.0621,0.63869 -0.0298,2.627724 -0.17485,3.789955 -0.17919,1.435114 -0.24744,1.718244 -1.1467,4.756352 -0.55706,1.882029 -1.86129,4.522822 -2.78965,5.648498 -0.0113,0.01368 -0.0583,-0.01291 -0.10453,-0.05904 -0.0874,-0.08741 -0.22776,-1.129038 -0.30027,-2.228516 -0.0343,-0.520611 -0.0435,-0.554399 -0.11504,-0.424248 -0.2904,0.528324 -2.06886,2.578241 -3.29041,3.792637 -1.38773,1.37961 -4.13828,3.301323 -4.89937,3.423035 l -0.23107,0.03694 z m -14.18934,-6.470942 c 0.13567,-0.07877 0.2404,-0.182007 0.2404,-0.236955 0,-0.05356 -0.16797,-0.351579 -0.37328,-0.662277 -0.2053,-0.310689 -0.4485,-0.71326 -0.54043,-0.894595 -0.57106,-1.126356 -0.86118,-2.869076 -0.64669,-3.884494 0.0427,-0.202224 0.0691,-0.376828 0.0587,-0.387995 -0.0378,-0.04034 -1.41968,0.980757 -1.73667,1.283278 -0.2013,0.192115 -0.21212,0.220633 -0.21212,0.559237 0,1.377654 1.07118,3.660901 1.9626,4.183305 0.4735,0.27749 0.82,0.288742 1.24754,0.0405 z m 10.24422,-0.988848 c 0.098,-0.03416 0.17813,-0.08358 0.17813,-0.109849 0,-0.02628 -0.14467,-0.284684 -0.3215,-0.574276 -0.49914,-0.817429 -0.84805,-1.895754 -1.06721,-3.29827 -0.0771,-0.493764 -0.0897,-0.80991 -0.0606,-1.531253 0.0662,-1.641504 0.36148,-2.28698 1.04611,-2.28698 0.19954,0 0.25296,0.0323 0.47734,0.288819 0.3048,0.348434 0.82932,1.302204 1.0526,1.914031 0.13867,0.37995 0.29065,0.977148 0.42549,1.671945 0.13059,0.672888 0.13036,2.573225 -4.3e-4,3.184867 -0.0392,0.183174 -0.0367,0.186072 0.12329,0.14747 0.47837,-0.115406 1.2191,-0.598311 1.60971,-1.049422 0.51026,-0.589276 0.64485,-0.781918 1.00219,-1.434419 0.81893,-1.495339 1.22514,-3.580984 1.00217,-5.145661 -0.1319,-0.925662 -0.22447,-1.23068 -0.61857,-2.038301 -0.31443,-0.644379 -0.41955,-0.799894 -0.84933,-1.256438 -1.05091,-1.116387 -2.11675,-1.550365 -3.61742,-1.472913 -0.46883,0.02419 -0.70008,0.07203 -1.28614,0.265928 -0.80305,0.265712 -1.33434,0.556679 -2.00741,1.099362 -0.49286,0.397392 -1.17644,1.10032 -1.43323,1.473801 -0.48123,0.699906 -0.97334,2.016407 -1.2171,3.255998 -0.11111,0.565017 -0.58948,2.0298 -0.796,2.437339 -0.50658,0.999699 -1.05107,1.661451 -1.58218,1.922912 -0.45739,0.225177 -0.73778,0.201551 -1.126,-0.09488 -0.31403,-0.239775 -0.30859,-0.279042 -0.11761,0.848311 0.0778,0.459125 0.14142,0.918885 0.14142,1.021685 v 0.186915 l 0.35354,-0.147671 c 0.31963,-0.133512 0.41864,-0.146936 1.03233,-0.139911 0.50143,0.0054 0.85617,0.04676 1.3576,0.157037 2.47117,0.543425 2.82868,0.605552 3.90308,0.678274 1.39526,0.09444 2.1742,0.102747 2.39563,0.02558 z"
         id="path113535" />
    </g>
  </g>
</svg>
