<?xml version="1.0" encoding="UTF-8" standalone="no"?>
<!-- Created with Inkscape (http://www.inkscape.org/) -->

<svg
   width="146.33775mm"
   height="146.33775mm"
   viewBox="0 0 146.33775 146.33775"
   version="1.1"
   id="svg4208"
   xml:space="preserve"
   inkscape:version="1.2.2 (b0a8486541, 2022-12-01)"
   sodipodi:docname="atmosphere.svg"
   xmlns:inkscape="http://www.inkscape.org/namespaces/inkscape"
   xmlns:sodipodi="http://sodipodi.sourceforge.net/DTD/sodipodi-0.dtd"
   xmlns="http://www.w3.org/2000/svg"
   xmlns:svg="http://www.w3.org/2000/svg"><sodipodi:namedview
     id="namedview4210"
     pagecolor="#505050"
     bordercolor="#eeeeee"
     borderopacity="1"
     inkscape:showpageshadow="0"
     inkscape:pageopacity="0"
     inkscape:pagecheckerboard="0"
     inkscape:deskcolor="#505050"
     inkscape:document-units="mm"
     showgrid="false"
     inkscape:zoom="0.5946522"
     inkscape:cx="-27.747312"
     inkscape:cy="428.82209"
     inkscape:window-width="1920"
     inkscape:window-height="958"
     inkscape:window-x="0"
     inkscape:window-y="32"
     inkscape:window-maximized="1"
     inkscape:current-layer="layer1" /><defs
     id="defs4205" /><g
     inkscape:label="Calque 1"
     inkscape:groupmode="layer"
     id="layer1"
     transform="translate(-33.830062,-43.852075)"><g
       id="g10337"
       transform="matrix(2.4198582,0,0,2.4198582,-133.55493,-179.91503)"><circle
         style="fill:#a0c497;fill-opacity:1;stroke:none;stroke-width:2.7907;stroke-linecap:round;stroke-dasharray:none;stroke-opacity:1"
         id="circle5294"
         cx="99.408249"
         cy="122.70801"
         r="28.841494" /><path
         style="fill:#85aa57;fill-opacity:0.996078;stroke:#000000;stroke-width:1;stroke-linecap:butt;stroke-linejoin:miter;stroke-dasharray:none;stroke-opacity:1"
         d="m 76.382302,138.6093 c 1.579682,-0.58805 3.433511,-0.69958 1.759998,-3.81629 -1.522137,-2.8348 0.454309,-6.93511 3.57323,-3.23006 1.149567,1.3656 2.66277,1.36236 4.292107,-0.23678 2.48367,-2.43765 5.154511,-3.64054 7.866785,-4.04509 1.36653,-0.20382 2.310058,-0.99217 2.707413,-2.35979 0.955946,-3.29017 5.349665,-3.22074 6.704445,-1.9053 l 2.43569,2.36497 c 2.588,2.51286 8.47079,-2.03616 6.18862,4.30448 -0.43998,1.22243 -1.04581,2.40972 -0.76033,4.08305 0.18306,1.07301 0.27395,2.04778 -0.79799,3.09402 -0.62617,0.61116 -0.67002,1.41453 -0.70701,3.0164 -0.1201,5.20042 -6.27228,6.94549 -10.749507,5.39708 l -4.604101,-1.59229 c -5.876047,-2.03218 -8.783349,2.31356 -8.900909,3.6716"
         id="path5290"
         sodipodi:nodetypes="csssssssssssssc" /><path
         style="fill:#85aa57;fill-opacity:0.996078;stroke:#000000;stroke-width:1;stroke-linecap:butt;stroke-linejoin:miter;stroke-dasharray:none;stroke-opacity:1"
         d="m 87.840073,116.78072 c -2.201476,1.55281 -3.607742,4.00159 -6.378477,5.50099 -2.381393,1.28871 -3.014105,0.13133 -3.898024,-0.712 -1.798996,-1.71639 -2.067346,-3.42113 1.509643,-4.86309 1.077816,-0.43449 2.107171,-0.55488 2.728111,-2.17124 0.573158,-1.49198 1.795885,-2.87404 3.017073,-4.57779 1.512171,-2.10971 0.894976,-2.50031 -1.072462,-1.92621 -4.015662,1.17178 -2.618878,-3.65496 -1.985042,-4.21107 1.335981,-1.17215 2.99789,-2.26448 4.703165,-3.23401 0.952508,-0.54154 1.78709,-0.50939 2.968008,0.091 1.859707,0.9455 3.783821,0.11023 5.171533,-1.327472 3.846636,-3.985207 7.308829,-1.989138 9.569649,-0.572883 2.79318,1.749745 5.12766,4.232465 8.37954,5.249225 7.80625,1.16034 6.79926,5.39874 1.66681,6.19388 -4.29795,0.66586 -6.55817,2.88828 -8.39184,6.0137 -0.87545,1.49216 -1.88457,2.73262 -4.23835,2.86601 l -5.994302,0.33971 c -2.488954,0.14105 -2.938841,-0.72704 -2.850999,-2.12572 0.183121,-2.91577 -2.06111,-2.53829 -4.904036,-0.53303 z"
         id="path5292"
         sodipodi:nodetypes="sssssssssssscssssss" /><circle
         style="fill:none;stroke:#000000;stroke-width:2.7907;stroke-linecap:round;stroke-dasharray:none;stroke-opacity:1"
         id="path4756"
         cx="99.408249"
         cy="122.70801"
         r="28.841494" /></g></g></svg>
