<?xml version="1.0" encoding="UTF-8" standalone="no"?>
<!-- Created with Inkscape (http://www.inkscape.org/) -->

<svg
   width="118.818mm"
   height="118.818mm"
   viewBox="0 0 118.818 118.818"
   version="1.1"
   id="svg962"
   xml:space="preserve"
   inkscape:version="1.2.2 (b0a8486541, 2022-12-01)"
   sodipodi:docname="applications-education.svg"
   xmlns:inkscape="http://www.inkscape.org/namespaces/inkscape"
   xmlns:sodipodi="http://sodipodi.sourceforge.net/DTD/sodipodi-0.dtd"
   xmlns:xlink="http://www.w3.org/1999/xlink"
   xmlns="http://www.w3.org/2000/svg"
   xmlns:svg="http://www.w3.org/2000/svg"><sodipodi:namedview
     id="namedview964"
     pagecolor="#505050"
     bordercolor="#eeeeee"
     borderopacity="1"
     inkscape:showpageshadow="0"
     inkscape:pageopacity="0"
     inkscape:pagecheckerboard="0"
     inkscape:deskcolor="#505050"
     inkscape:document-units="mm"
     showgrid="false"
     inkscape:zoom="0.84096521"
     inkscape:cx="49.348058"
     inkscape:cy="166.47538"
     inkscape:window-width="1920"
     inkscape:window-height="966"
     inkscape:window-x="0"
     inkscape:window-y="32"
     inkscape:window-maximized="1"
     inkscape:current-layer="layer1" /><defs
     id="defs959"><linearGradient
       inkscape:collect="always"
       id="linearGradient2026"><stop
         style="stop-color:#26511d;stop-opacity:1;"
         offset="0"
         id="stop2022" /><stop
         style="stop-color:#008000;stop-opacity:1"
         offset="1"
         id="stop2024" /></linearGradient><linearGradient
       inkscape:collect="always"
       xlink:href="#linearGradient2026"
       id="linearGradient2028"
       x1="50.58205"
       y1="65.155396"
       x2="149.35561"
       y2="129.12775"
       gradientUnits="userSpaceOnUse" /><linearGradient
       inkscape:collect="always"
       xlink:href="#linearGradient2367"
       id="linearGradient2369"
       x1="87.802162"
       y1="14.481304"
       x2="87.802162"
       y2="48.528271"
       gradientUnits="userSpaceOnUse" /><linearGradient
       inkscape:collect="always"
       id="linearGradient2367"><stop
         style="stop-color:#ffaf00;stop-opacity:1;"
         offset="0"
         id="stop2363" /><stop
         style="stop-color:#ffd77e;stop-opacity:1;"
         offset="1"
         id="stop2365" /></linearGradient></defs><g
     inkscape:label="Calque 1"
     inkscape:groupmode="layer"
     id="layer1"
     transform="translate(-41.000378,-55.316196)"><g
       id="g4788"
       transform="translate(0,16.933334)"><rect
         style="fill:url(#linearGradient2028);fill-opacity:1;stroke:#412412;stroke-width:5;stroke-linecap:round;stroke-dasharray:none;stroke-opacity:1"
         id="rect1404"
         width="113.05109"
         height="79.285446"
         x="43.500378"
         y="57.816196" /><g
         id="g1031"
         inkscape:label="tails"
         transform="translate(48.961518,89.119986)"><rect
           style="fill:#ffffff;fill-opacity:1;stroke:none;stroke-width:1.265;stroke-linecap:round"
           id="rect1027"
           width="19.561054"
           height="15.558186"
           x="77.10479"
           y="25.881784" /><path
           style="fill:url(#linearGradient2369);fill-opacity:1;stroke-width:0.0220966"
           d="m 102.25965,52.540075 c -3.470883,-2.730157 -3.157217,-5.956274 -7.968802,-5.007871 -3.373146,0.627293 -6.879642,1.189707 -10.255122,0.281977 -1.40769,-0.409824 -2.815783,-0.990918 -4.25799,-1.16868 -2.667071,0.492087 -4.974506,2.053553 -7.030168,3.753214 -0.184284,-0.922564 0.298215,-2.072634 0.415431,-3.069764 0.686552,-1.198108 1.40072,-2.373708 -0.528996,-1.522882 -1.019148,0.339398 -1.978825,0.828623 -2.982905,1.193393 -0.715965,-0.963133 1.473266,-4.626406 2.175818,-4.905433 -0.310069,-1.271271 -4.618202,-0.926416 -3.376603,-2.190856 1.153767,-0.712598 2.534777,-1.070726 3.723155,-1.579074 -1.074371,-0.886987 -2.513251,-1.213162 -3.540696,-2.143295 0.843897,-1.669122 6.347021,-1.1809 7.405727,-0.454175 0.304173,-0.621383 -0.346886,-2.235743 -0.423316,-3.195159 -0.506026,-0.836309 -0.205843,-3.650953 -1.047748,-3.165485 -1.995933,1.757204 -3.865445,3.670804 -5.883888,5.391704 -1.235844,0.377743 -0.303196,-1.441093 -0.007,-1.927943 1.407547,-2.673905 2.510877,-5.650338 4.779916,-7.743134 -0.347484,-0.961287 -0.668323,-1.938564 -0.988376,-2.912934 -1.96758,0.06944 -3.870118,0.92236 -5.758049,1.447562 -1.490731,0.359223 -2.830769,1.173514 -4.34061,1.441703 -1.369877,-0.828579 1.302038,-2.105491 2.005526,-2.772192 2.215684,-1.503879 4.518184,-2.911168 7.027115,-3.874498 -0.35596,-2.249249 -0.745311,-4.546775 -0.508664,-6.843205 0.936387,-1.104062 -0.921321,-1.303996 -1.606358,-1.829436 -1.490863,-1.3999123 2.00937,-0.8586789 2.862833,-0.576763 2.7858,0.7073097 5.518691,1.81728 7.745142,3.670793 2.435313,1.342471 4.735055,2.997965 6.644557,5.019656 1.53109,0.295782 3.231409,0.271592 4.176061,-1.196915 2.665369,-2.532791 5.780267,-4.502438 9.085752,-6.076969 2.465918,-1.1858344 5.030598,-2.4919115 7.806418,-2.628085 1.15887,0.2556529 0.94227,1.8197072 1.11796,2.7447 0.12917,4.796516 -0.0859,9.740543 -1.90315,14.240634 -0.9554,2.569102 -2.07507,5.107515 -3.58919,7.382855 -0.19717,0.675317 -0.48173,1.330436 -0.67316,2.005449 2.0492,-0.374312 4.07723,-1.317503 6.20314,-1.250986 0.67576,0.888976 -1.11839,1.691635 -1.49095,2.435284 -0.28924,0.764948 -3.08297,2.118294 -1.65595,2.293395 2.1724,0.272931 3.56668,2.196992 5.03819,3.595951 0.94361,1.661491 -1.66749,0.943785 -2.582,0.759448 -0.85046,-0.23921 -4.97208,-0.516344 -2.68604,0.919897 1.07087,1.202113 1.6726,2.762093 2.38692,4.193745 0.63582,1.620602 -1.45098,0.69029 -2.05011,0.16557 -1.15288,-0.696707 -2.436,-1.212767 -3.7953,-1.259517 0.81324,1.867634 0.68046,4.008616 0.75526,6.007543 -0.003,0.211112 -0.18458,0.456454 -0.42381,0.350778 z M 91.313015,39.596464 c -0.274291,-0.543805 -0.5295,-2.42577 -0.373661,-3.660779 0.209086,-1.656988 0.279455,-3.604211 1.52011,-4.820734 1.381369,0.113553 1.086209,2.206423 1.237123,3.282837 -0.01192,1.324081 -0.324335,2.641287 -0.441689,3.938718 0.970425,0.364003 1.691182,-0.918072 1.702085,-1.844633 0.4974,-3.310361 -0.125065,-7.162861 -2.674641,-9.534686 -1.133653,-1.126512 -2.815747,-0.317977 -3.567043,0.822569 -1.992355,2.947843 -2.237117,6.760174 -1.912652,10.204781 0.86107,0.931303 2.231087,1.389961 3.482057,1.601454 l 0.382945,0.02947 c 0.310515,0 0.262324,-0.019 0.645366,-0.019 z M 79.98057,38.921935 c 0.541954,-0.414978 1.628736,-0.677549 1.192016,-1.565251 -0.172411,-2.031664 -0.289934,-4.44847 1.20574,-6.042833 1.825208,1.895074 0.793253,-2.038887 0.86575,-3.141384 0.07155,-1.025284 -1.260794,-1.745969 -2.002351,-1.016476 -1.982977,1.67918 -2.687579,4.388208 -3.047122,6.861037 -0.03169,1.633294 -0.157718,3.883013 1.294209,4.916669 l 0.491491,-0.01178 z m 2.744151,-0.03014 c 1.44368,-1.019845 -2.417398,-0.166645 1.7e-5,-1.87e-4 z"
           id="path113197"
           sodipodi:nodetypes="ccccccccccccccccccccccccccccccccccccccccccccccccsccccccccccccccccccccccc" /></g></g></g></svg>
