<?xml version="1.0" encoding="UTF-8" standalone="no"?>
<!-- Created with Inkscape (http://www.inkscape.org/) -->

<svg
   width="189.85779mm"
   height="151.36687mm"
   viewBox="0 0 189.85781 151.36685"
   version="1.1"
   id="svg1"
   xmlns:xlink="http://www.w3.org/1999/xlink"
   xmlns="http://www.w3.org/2000/svg"
   xmlns:svg="http://www.w3.org/2000/svg">
  <defs
     id="defs1">
    <linearGradient
       xlink:href="#linearGradient3575"
       id="linearGradient3577"
       x1="-21.785782"
       y1="150.34862"
       x2="-21.785782"
       y2="178.57001"
       gradientUnits="userSpaceOnUse" />
    <linearGradient
       id="linearGradient3575">
      <stop
         style="stop-color:#000646;stop-opacity:1;"
         offset="0"
         id="stop3571" />
      <stop
         style="stop-color:#000a70;stop-opacity:1;"
         offset="1"
         id="stop3573" />
    </linearGradient>
  </defs>
  <g
     id="layer1"
     transform="translate(-12.07726,-12.900421)">
    <g
       id="g8074"
       transform="matrix(4.5906177,0,0,4.5906177,210.90439,-665.69603)">
      <path
         style="fill:#f60000;stroke-width:0.040546"
         d="m -36.456494,173.81718 c -0.108456,-0.0531 -0.259988,-0.15747 -0.336736,-0.23186 -0.14743,-0.14289 -0.441377,-0.64748 -0.633886,-1.08812 -0.525848,-1.20363 -0.656759,-1.87505 -0.656759,-3.3684 0,-0.5794 0.0022,-0.59435 0.113512,-0.7624 0.06243,-0.0943 0.199273,-0.22654 0.304094,-0.29391 0.161597,-0.10385 0.221421,-0.12008 0.393316,-0.10669 0.291778,0.0227 0.499415,0.17853 0.818442,0.61409 0.328053,0.44789 0.6188,1.07561 0.95053,2.05219 0.300927,0.8859 0.331026,1.08762 0.276615,1.85375 -0.0483,0.68011 -0.09889,0.83525 -0.367346,1.12649 -0.302043,0.32767 -0.510106,0.37713 -0.861782,0.20486 z m 9.441698,-1.72465 c -0.111502,-0.0441 -0.271669,-0.13704 -0.355928,-0.20656 -0.169108,-0.13953 -0.617469,-0.86395 -0.659335,-1.0653 -0.0146,-0.0703 -0.0862,-0.31023 -0.159095,-0.53323 -0.452869,-1.38552 -0.617291,-2.35267 -0.580535,-3.41477 0.01814,-0.52404 0.02885,-0.58393 0.172419,-0.96421 0.214174,-0.56727 0.315421,-0.75375 0.499553,-0.9201 0.302196,-0.27302 0.670776,-0.3038 1.134758,-0.0948 0.197402,0.0889 0.329728,0.19367 0.589287,0.46642 0.699099,0.73463 1.052292,1.7541 1.166277,3.36639 0.06672,0.94378 0.05297,1.55068 -0.04618,2.03861 -0.153409,0.75491 -0.343202,1.07841 -0.755002,1.28687 -0.267835,0.13558 -0.719905,0.15384 -1.006222,0.0406 z"
         id="path6277" />
      <path
         id="path6275"
         style="fill:#ff0000;fill-opacity:1;stroke-width:0.040546"
         d="m -27.765747,159.23989 c 0.123797,-7e-4 0.247638,0.0124 0.264583,0.0398 0.01385,0.0224 0.101431,0.0376 0.19482,0.0346 0.29501,-0.0101 0.747658,0.13711 1.218531,0.39635 0.203901,0.11227 0.709813,0.62417 0.931209,0.94258 0.207042,0.29775 0.557903,0.9719 0.614433,1.18029 0.01513,0.0558 0.05387,0.16013 0.0863,0.23203 0.06696,0.14836 0.192188,0.6023 0.302824,1.09761 0.04131,0.18492 0.08386,0.35063 0.09457,0.36793 0.03051,0.0494 0.06749,0.25021 0.0863,0.46819 0.0095,0.1096 0.02944,0.23721 0.04444,0.28371 0.02864,0.0887 0.05208,0.26627 0.05478,0.41702 8.9e-4,0.0491 0.02025,0.10073 0.04289,0.11473 0.02321,0.0143 0.03018,0.0842 0.01602,0.15968 -0.01473,0.0785 -0.0072,0.14511 0.01809,0.16071 0.02614,0.0161 0.03366,0.0959 0.01912,0.20205 -0.01457,0.1064 -0.0071,0.18586 0.01912,0.20206 0.02655,0.0164 0.03437,0.10312 0.02015,0.22324 -0.01506,0.12718 -0.0069,0.20609 0.02325,0.22479 0.03095,0.0191 0.03775,0.0952 0.02015,0.2279 -0.01762,0.13284 -0.01013,0.2193 0.02274,0.2589 0.03515,0.0424 0.04109,0.14746 0.02067,0.36535 -0.01957,0.20884 -0.01402,0.32363 0.01757,0.36173 0.04605,0.0555 0.04105,0.62764 -0.0067,0.755 -0.01255,0.0334 -0.02521,0.088 -0.02791,0.12144 -0.01664,0.20272 -0.03259,0.3139 -0.05529,0.3855 -0.01414,0.0446 -0.03402,0.1632 -0.04393,0.26355 -0.02319,0.23608 -0.281467,1.39796 -0.392224,1.76372 -0.276605,0.91346 -0.274955,0.90787 -0.592212,1.54047 -0.292932,0.5841 -0.353334,0.6885 -0.553971,0.94827 -0.09263,0.11993 -0.204997,0.26809 -0.249597,0.32969 -0.119758,0.16541 -0.577243,0.53758 -0.93276,0.75861 -0.142491,0.0886 -0.562795,0.28285 -0.709517,0.32815 -0.308904,0.0954 -0.675153,0.1767 -0.79065,0.1757 -0.0669,-6e-4 -0.148968,0.009 -0.182418,0.0212 -0.100561,0.0369 -1.303674,0.036 -1.326534,-0.001 -0.01165,-0.0187 -0.0996,-0.0227 -0.195336,-0.008 -0.106801,0.016 -0.184225,0.01 -0.200505,-0.0165 -0.01459,-0.0236 -0.07553,-0.0418 -0.135392,-0.0408 -0.05986,0.001 -0.214639,-0.017 -0.344165,-0.0408 -0.129525,-0.0235 -0.253456,-0.0322 -0.275436,-0.0186 -0.02197,0.0135 -0.06198,0.007 -0.08888,-0.0145 -0.0485,-0.0386 -0.688491,-0.168 -0.961182,-0.1943 -0.07805,-0.007 -0.242184,-0.042 -0.364835,-0.077 -0.122652,-0.035 -0.30531,-0.0711 -0.40566,-0.0811 -0.205147,-0.0198 -0.337632,-0.0426 -0.486276,-0.0827 -0.260766,-0.0704 -0.660687,-0.13864 -0.693497,-0.11834 -0.02006,0.0124 -0.05945,0.008 -0.08733,-0.0103 -0.02788,-0.0181 -0.105182,-0.0358 -0.172082,-0.0398 -0.0669,-0.004 -0.176496,-0.0197 -0.243396,-0.0351 -0.176033,-0.0405 -0.447816,-0.0664 -0.756543,-0.0734 -0.148446,-0.003 -0.283807,-0.0195 -0.300757,-0.0362 -0.05986,-0.0591 -0.450642,-0.0335 -0.505912,0.0331 -0.205641,0.24778 -0.575324,0.22945 -0.977201,-0.0481 -0.0814,-0.0562 -0.172472,-0.0975 -0.202572,-0.0925 -0.0301,0.005 -0.159417,-0.005 -0.287321,-0.0222 -0.127906,-0.0176 -0.528831,-0.0437 -0.890902,-0.0579 l -0.658357,-0.0253 -0.213941,-0.34468 c -0.436276,-0.70176 -0.890692,-1.67261 -1.157552,-2.47323 -0.483919,-1.45179 -0.657582,-3.11822 -0.496094,-4.76457 0.08238,-0.83981 0.314923,-2.02552 0.454236,-2.31666 0.108663,-0.22708 0.305994,-0.42816 0.516248,-0.52606 0.261631,-0.12165 0.399716,-0.12143 0.611332,0.003 0.335677,0.19673 0.541576,0.58175 0.711584,1.33067 0.266874,1.17564 0.752091,2.63041 1.075387,3.22409 0.07632,0.14014 0.139009,0.27955 0.139009,0.30955 0,0.03 0.05426,0.0768 0.120923,0.10438 0.224572,0.093 0.629587,0.62261 0.912606,1.19269 l 0.162264,0.3266 0.188619,-0.0119 c 0.104594,-0.007 0.200461,0.007 0.215491,0.0315 0.03805,0.0616 0.499494,0.0174 0.615983,-0.0589 0.05137,-0.0337 0.119008,-0.11098 0.150378,-0.17208 0.05621,-0.1095 0.143262,-0.47997 0.149862,-0.6382 0.0019,-0.0446 0.0063,-0.16319 0.01033,-0.26355 0.004,-0.10035 0.02245,-0.2057 0.04083,-0.2341 0.01833,-0.0284 0.02149,-0.10685 0.0067,-0.17415 -0.01607,-0.0732 -0.0079,-0.14543 0.02067,-0.17983 0.02809,-0.0339 0.03716,-0.10633 0.0217,-0.17673 -0.01544,-0.0703 -0.0083,-0.13076 0.01757,-0.14676 0.02419,-0.0149 0.04429,-0.0853 0.04444,-0.15607 1.7e-4,-0.0708 0.01023,-0.21074 0.02274,-0.31109 0.0125,-0.10035 0.02597,-0.23696 0.02997,-0.30386 0.004,-0.0669 0.02163,-0.14501 0.03927,-0.17311 0.01761,-0.0281 0.02125,-0.0857 0.0078,-0.12816 -0.01349,-0.0425 -0.0058,-0.0887 0.01705,-0.10284 0.02287,-0.0141 0.04092,-0.0661 0.04031,-0.11523 -0.0039,-0.2927 0.503509,-2.23267 0.6165,-2.35748 0.01918,-0.0212 0.03462,-0.0644 0.03462,-0.0956 0,-0.0942 0.413629,-0.97275 0.566891,-1.20407 0.04433,-0.0669 0.09708,-0.15797 0.117305,-0.20257 0.06136,-0.13527 0.566657,-0.79796 0.77308,-1.01389 0.106594,-0.1115 0.205348,-0.2349 0.219108,-0.2744 0.01376,-0.0395 0.0571,-0.0842 0.09663,-0.0992 0.03953,-0.015 0.200118,-0.13877 0.356567,-0.27492 0.240998,-0.20974 0.653232,-0.50442 0.972034,-0.69453 0.228321,-0.13616 0.899963,-0.46135 0.952913,-0.46147 0.03345,-1e-4 0.115518,-0.0364 0.182418,-0.0806 0.0669,-0.0441 0.153406,-0.0702 0.192236,-0.0579 0.03883,0.012 0.09388,0.008 0.121957,-0.01 0.04853,-0.0305 0.204043,-0.0487 0.443384,-0.0517 0.05986,-8e-4 0.121405,-0.0217 0.136425,-0.046 0.01746,-0.0282 0.09716,-0.0347 0.221175,-0.0176 0.123062,0.0169 0.204026,0.0106 0.221176,-0.017 0.01707,-0.0276 0.140786,-0.0417 0.264583,-0.0424 z" />
      <path
         id="path7702"
         style="fill:#d10000;fill-opacity:1;stroke-width:0.040546"
         d="m -6.5882284,173.58269 c -0.2668904,0.15859 -0.5466244,0.30845 -0.8605201,0.3338 -0.4217147,0.032 -0.5592802,0.4722 -0.3148383,0.75612 0.1463654,0.27455 0.4133995,0.56859 0.4968444,0.87274 -0.5136043,0.21076 -1.1102758,-0.0179 -1.6163801,0.21754 -0.351866,0.21722 -0.1358726,0.65653 0.026742,0.90107 0.1612947,0.31244 0.4426656,0.64011 0.4155397,1.0063 -0.1344897,0.36506 -0.6323282,0.14834 -0.9112711,0.0853 -0.3109885,-0.11055 -0.6195961,0.15864 -0.8822391,0.30781 -0.221965,0.11472 -0.224519,0.19627 0.03062,0.20541 2.0182191,0.39875 3.9629269,1.10782 5.8280915,1.96645 0.2635285,-0.003 0.062857,-0.48959 0.090167,-0.69274 -0.1238497,-1.37224 -0.4056264,-2.74705 -1.0129545,-3.99236 -0.3400486,-0.70899 -0.7750139,-1.37493 -1.2897963,-1.96741 z" />
      <path
         id="path7700"
         style="fill:#d10000;fill-opacity:1;stroke-width:0.040546"
         d="m -5.97948,161.26974 c -0.4927558,0.23752 -1.1122544,0.39949 -1.4408565,0.86317 -0.2244958,0.32681 -0.011335,0.80734 0.2567778,1.02369 0.2016129,0.1788 0.9018217,0.30978 0.5432517,0.6491 -0.3178646,0.26988 -0.8334037,0.30871 -1.0298024,0.70465 -0.092152,0.3393 0.2058761,0.64424 0.4337988,0.8262 0.30027,0.17639 0.545799,0.58147 0.1232062,0.76993 -0.4410958,0.24666 -0.9375505,0.29665 -1.4227685,0.40931 -0.2074364,0.44268 0.1656925,0.97873 0.4912186,1.26327 0.2661846,0.09 0.6106146,-0.1295 0.9087585,-0.1496 1.4875085,-0.33052 3.0117557,-0.54174 4.5379576,-0.51053 0.2409025,-0.0172 0.8277485,0.20746 0.5519373,-0.21444 -0.8945635,-2.12758 -2.1820256,-4.13302 -3.9534791,-5.63475 z" />
      <path
         id="path7698"
         style="fill:#d10000;fill-opacity:1;stroke-width:0.040546"
         d="m -10.950236,148.99246 c -0.713682,0.16008 -1.49915,0.42443 -2.01054,0.96835 -0.311505,0.32544 -0.260117,0.8512 0.161288,1.00192 0.451741,0.27674 1.196627,0.34127 1.524871,0.79143 0.228281,0.33488 -0.07013,0.70886 -0.331483,0.91669 -0.143361,0.19225 -0.914311,0.43985 -0.618289,0.68503 0.396884,0.1504 1.025806,-0.0193 1.380177,0.2411 -0.0678,0.36009 -0.746798,0.35204 -1.053206,0.46154 -0.276728,0.12053 0.133293,0.71403 0.335081,0.88669 0.361603,0.31079 0.854092,0.38509 1.309265,0.45845 1.7553985,-1.09804 3.8253725,-1.60179 5.8799063,-1.68283 0.3805765,-0.10601 -0.2799806,-0.52926 -0.3868905,-0.71833 -1.5697031,-1.69038 -3.5318348,-3.00732 -5.6887558,-3.82443 -0.166197,-0.0643 -0.333687,-0.12587 -0.501424,-0.18561 z" />
      <path
         id="path7696"
         style="fill:url(#linearGradient3577);fill-opacity:1;stroke-width:0.040546"
         d="m -17.858858,147.8225 c -0.727069,-7.9e-4 -1.442829,0.0144 -1.463994,0.047 -0.01661,0.0256 -0.296489,0.0647 -0.657324,0.0915 -2.247544,0.1667 -5.064769,0.83144 -7.358724,1.73685 -3.292326,1.29946 -5.99299,3.02084 -8.308537,5.2958 l -0.726053,0.71313 -0.267168,-0.0227 c -0.345436,-0.0296 -1.36155,-0.22091 -2.123901,-0.39998 -2.006704,-0.47134 -2.847693,-0.57101 -3.464388,-0.41083 -0.456565,0.1186 -0.801667,0.4224 -0.924491,0.81339 -0.0358,0.11394 -0.08689,0.25109 -0.113172,0.30489 -0.06003,0.12294 -0.06002,1.13354 0,1.17254 0.02289,0.0149 0.05445,0.12746 0.07028,0.25011 0.110095,0.85302 0.641544,2.48925 1.396814,4.30103 l 0.364836,0.87489 -0.08113,0.36173 c -0.151345,0.67655 -0.319496,1.77907 -0.364836,2.389 -0.0704,0.947 -0.02333,2.37673 0.102836,3.11092 0.25081,1.45949 0.689935,2.62747 1.512053,4.02508 0.371521,0.63158 0.469117,0.82754 0.444417,0.89194 -0.0111,0.0289 -0.124573,0.0999 -0.251664,0.15813 -0.502374,0.23 -1.120119,0.78082 -1.278992,1.13998 -0.245251,0.55443 0.07209,0.99079 0.928109,1.27589 0.462293,0.15397 1.366492,0.31082 2.15439,0.37362 l 0.591179,0.047 0.201021,0.22634 c 0.896113,1.00562 2.022044,1.99175 3.022555,2.6479 0.50502,0.3312 1.575479,0.86696 2.087727,1.0449 0.456949,0.15873 1.214786,0.34537 1.561145,0.38447 0.144952,0.0163 0.281795,0.0443 0.304375,0.0625 0.02258,0.0181 0.114168,0.0416 0.203088,0.0522 v -5.2e-4 c 0.295906,0.0352 1.840511,-1e-4 1.893941,-0.0434 0.02829,-0.0229 0.188283,-0.0543 0.355534,-0.0698 0.81497,-0.0757 2.234336,-0.41281 4.216797,-1.00097 4.015387,-1.19129 5.248224,-1.47678 7.440373,-1.72444 1.000619,-0.11307 3.217942,-0.10321 4.247286,0.0191 0.583356,0.0693 1.146542,0.15565 1.699638,0.26045 0.05318,-0.044 0.107389,-0.0866 0.16278,-0.12558 0.06333,-0.0446 0.12788,-0.0858 0.19327,-0.12299 0.06539,-0.0371 0.1313551,-0.0703 0.1979209,-0.0992 0.066566,-0.0289 0.1336476,-0.0531 0.2005045,-0.0729 0.033429,-0.01 0.066917,-0.0189 0.1002523,-0.0263 0.033335,-0.007 0.066604,-0.0132 0.099735,-0.0181 0.1021801,0.0326 0.1953769,0.0585 0.280603,0.0791 0.085226,0.0205 0.1626418,0.0356 0.2320272,0.045 0.034693,0.005 0.067244,0.008 0.098185,0.01 0.030941,0.002 0.060004,0.003 0.087333,0.002 0.027329,-5.1e-4 0.053142,-0.002 0.076998,-0.005 0.023856,-0.003 0.045624,-0.007 0.066146,-0.0124 0.020522,-0.005 0.039517,-0.0117 0.056844,-0.0191 0.017327,-0.007 0.033271,-0.0158 0.047542,-0.0253 0.014271,-0.01 0.026886,-0.0205 0.038241,-0.032 0.011354,-0.0116 0.021395,-0.0237 0.029972,-0.0372 0.00858,-0.0135 0.015766,-0.0281 0.021704,-0.0434 0.00594,-0.0153 0.010513,-0.0311 0.013953,-0.0481 0.00344,-0.017 0.00564,-0.0347 0.00672,-0.0532 0.00108,-0.0185 0.00114,-0.0379 0,-0.0579 -0.00228,-0.04 -0.00879,-0.0829 -0.01912,-0.12816 -0.010332,-0.0453 -0.024591,-0.0929 -0.041858,-0.14263 -0.017267,-0.0497 -0.037889,-0.10178 -0.060978,-0.15503 -0.02309,-0.0532 -0.048682,-0.10785 -0.076481,-0.16381 -0.055597,-0.11193 -0.1193133,-0.22854 -0.1870687,-0.34623 -0.067755,-0.1177 -0.139315,-0.23627 -0.2103231,-0.35295 -0.00662,-0.0267 -0.01198,-0.0522 -0.015503,-0.0765 -0.00352,-0.0243 -0.00511,-0.0473 -0.00568,-0.0693 -5.722e-4,-0.022 -1.595e-4,-0.0432 0.00207,-0.0631 0.00223,-0.0198 0.00598,-0.0385 0.010852,-0.0563 0.00487,-0.0178 0.011234,-0.0348 0.018603,-0.0506 0.00737,-0.0159 0.015607,-0.0309 0.025322,-0.045 0.00971,-0.0141 0.020649,-0.0274 0.032556,-0.0398 0.011907,-0.0124 0.024809,-0.0238 0.038757,-0.0346 0.027897,-0.0217 0.05993,-0.0402 0.095085,-0.0563 0.035154,-0.0161 0.073521,-0.0298 0.1147217,-0.0413 0.0412,-0.0115 0.085224,-0.0211 0.1312581,-0.0289 0.046034,-0.008 0.094003,-0.014 0.1436605,-0.0191 0.099314,-0.0102 0.2050732,-0.0158 0.3116089,-0.0207 0.1065356,-0.005 0.2137455,-0.009 0.31781,-0.016 0.052032,-0.004 0.1033651,-0.007 0.1529623,-0.0129 0.049597,-0.005 0.09771,-0.0123 0.1436604,-0.0207 0.045951,-0.008 0.089649,-0.0183 0.1307414,-0.0305 0.041092,-0.0122 0.079699,-0.0265 0.1147217,-0.0434 -0.0087,-0.0382 -0.021466,-0.0779 -0.037207,-0.11834 -0.015741,-0.0404 -0.034765,-0.0819 -0.055811,-0.12403 -0.021046,-0.0421 -0.044114,-0.0844 -0.06873,-0.12764 -0.024616,-0.0432 -0.050547,-0.087 -0.076998,-0.13074 -0.052903,-0.0876 -0.1077779,-0.17591 -0.1576131,-0.26251 -0.024918,-0.0433 -0.048731,-0.0864 -0.07028,-0.12868 -0.021549,-0.0423 -0.040916,-0.0834 -0.057361,-0.12402 -0.016445,-0.0407 -0.029668,-0.0808 -0.039274,-0.11937 -0.00961,-0.0385 -0.015503,-0.0758 -0.016536,-0.11163 -5.167e-4,-0.0179 1.152e-4,-0.0356 0.00207,-0.0527 0.00195,-0.0171 0.00518,-0.0338 0.00982,-0.0501 0.00464,-0.0163 0.010547,-0.0321 0.018087,-0.0475 0.00754,-0.0154 0.01673,-0.03 0.027388,-0.0445 0.010658,-0.0144 0.022696,-0.0285 0.03669,-0.0418 0.013995,-0.0134 0.029995,-0.0265 0.047542,-0.0388 0.017547,-0.0123 0.037078,-0.024 0.058394,-0.0351 0.021317,-0.0111 0.04446,-0.0217 0.069763,-0.0315 0.025303,-0.01 0.052659,-0.0188 0.082165,-0.0274 0.029507,-0.009 0.061158,-0.0166 0.095085,-0.0238 0.067854,-0.0143 0.1446749,-0.0257 0.2315104,-0.0341 0.05666,-0.0233 0.1135951,-0.0477 0.1700154,-0.0734 0.05642,-0.0257 0.1123463,-0.0525 0.1679484,-0.0806 0.055602,-0.0281 0.1106421,-0.0577 0.1648479,-0.0884 0.026122,-0.0148 0.051299,-0.0306 0.076998,-0.046 -0.5653331,-0.6531 -1.2343847,-1.23587 -2.0102132,-1.75028 -0.6825343,-0.45255 -1.6699729,-0.96544 -2.6644369,-1.38338 -0.692246,-0.29092 -0.910276,-0.43984 -0.859896,-0.58756 0.048,-0.14074 0.351986,-0.44897 0.637687,-0.64648 0.731241,-0.5055 1.9466021,-0.98069 3.5196822,-1.38286 -0.00494,-0.004 -0.010602,-0.009 -0.015503,-0.0129 -0.059234,-0.053 -0.114929,-0.10662 -0.1669149,-0.16123 -0.051986,-0.0546 -0.1001392,-0.11024 -0.1431437,-0.16639 -0.021502,-0.0281 -0.042046,-0.0563 -0.060978,-0.0848 -0.018932,-0.0285 -0.036048,-0.0569 -0.052193,-0.0858 -0.016145,-0.0289 -0.031301,-0.0581 -0.044442,-0.0873 -0.013141,-0.0292 -0.024703,-0.0587 -0.034623,-0.0884 -0.00992,-0.0296 -0.017805,-0.0594 -0.024288,-0.0894 -0.00648,-0.03 -0.011123,-0.06 -0.013953,-0.0904 -0.00283,-0.0304 -0.00414,-0.0612 -0.0031,-0.092 0.00104,-0.0308 0.00417,-0.0618 0.0093,-0.093 0.00513,-0.0312 0.012272,-0.0624 0.021704,-0.094 0.00943,-0.0316 0.021187,-0.0636 0.03514,-0.0956 0.089327,-0.0205 0.1960403,-0.0418 0.3116088,-0.0656 0.1155686,-0.0238 0.2401126,-0.0503 0.3653524,-0.0801 0.06262,-0.0149 0.1251378,-0.0306 0.1870687,-0.0475 0.061931,-0.0169 0.1232472,-0.035 0.1824178,-0.0543 0.059171,-0.0192 0.1161931,-0.0396 0.1705322,-0.0615 0.054339,-0.0219 0.1060426,-0.0454 0.153479,-0.0703 0.047436,-0.0249 0.090729,-0.0513 0.1291911,-0.0796 0.019231,-0.0141 0.037144,-0.0289 0.053744,-0.0439 0.016599,-0.015 0.031767,-0.0305 0.045475,-0.0465 0.013709,-0.016 0.026131,-0.0321 0.03669,-0.0491 0.010559,-0.0169 0.019205,-0.0342 0.026355,-0.0522 0.00715,-0.018 0.012537,-0.0368 0.01602,-0.0558 0.00348,-0.019 0.00509,-0.0383 0.00465,-0.0584 -4.433e-4,-0.0201 -0.00261,-0.0412 -0.00723,-0.0625 -0.00463,-0.0213 -0.011598,-0.0432 -0.020671,-0.0656 -0.00907,-0.0225 -0.020331,-0.0455 -0.034106,-0.0693 -0.013776,-0.0237 -0.029838,-0.0479 -0.048576,-0.0729 -0.018738,-0.025 -0.04012,-0.0507 -0.064079,-0.077 -0.023959,-0.0263 -0.05066,-0.053 -0.080099,-0.0806 -0.029438,-0.0276 -0.061458,-0.0562 -0.096635,-0.0853 -0.035177,-0.029 -0.073547,-0.0589 -0.1147217,-0.0894 -0.047695,-0.0357 -0.090475,-0.0702 -0.1286743,-0.10387 -0.0382,-0.0337 -0.071957,-0.0663 -0.1012858,-0.0982 -0.029329,-0.0319 -0.054366,-0.0629 -0.075448,-0.093 -0.021081,-0.0301 -0.038218,-0.0594 -0.051677,-0.0879 -0.013459,-0.0285 -0.022995,-0.0563 -0.029455,-0.0832 -0.00646,-0.0269 -0.00973,-0.0531 -0.00982,-0.0785 -8.65e-5,-0.0255 0.00312,-0.0503 0.00878,-0.0744 0.00566,-0.0241 0.014016,-0.0474 0.024805,-0.0703 0.010789,-0.0229 0.023984,-0.0454 0.039274,-0.0672 0.01529,-0.0217 0.03251,-0.0428 0.051676,-0.0636 0.019167,-0.0207 0.040109,-0.0407 0.062528,-0.0605 0.022419,-0.0198 0.046266,-0.0394 0.071314,-0.0584 0.050095,-0.0379 0.1048848,-0.0744 0.1617472,-0.10956 0.056863,-0.0352 0.116031,-0.069 0.1746664,-0.10232 0.058635,-0.0333 0.1166685,-0.0659 0.1720825,-0.0982 0.055414,-0.0322 0.107831,-0.0641 0.1550293,-0.0961 0.047198,-0.032 0.089002,-0.0641 0.1229899,-0.0966 0.016994,-0.0163 0.032203,-0.0325 0.044958,-0.0491 0.012755,-0.0166 0.023114,-0.0332 0.031006,-0.0501 0.00789,-0.017 0.013098,-0.0342 0.015503,-0.0517 0.0024,-0.0175 0.00216,-0.0352 -0.00155,-0.0532 -0.00371,-0.018 -0.010744,-0.0365 -0.021187,-0.0553 -0.010444,-0.0188 -0.024054,-0.0378 -0.041858,-0.0574 -0.017804,-0.0196 -0.03984,-0.0395 -0.065629,-0.0599 -0.025789,-0.0205 -0.055519,-0.0416 -0.089917,-0.063 -0.034398,-0.0215 -0.073158,-0.0436 -0.1167887,-0.0661 -0.043631,-0.0226 -0.092239,-0.0455 -0.1457276,-0.0692 -0.039041,-0.0315 -0.075307,-0.0629 -0.1090373,-0.0935 -0.03373,-0.0306 -0.064903,-0.0606 -0.093534,-0.0904 -0.028631,-0.0299 -0.054806,-0.0593 -0.078548,-0.0884 -0.023742,-0.0291 -0.045014,-0.058 -0.064079,-0.0863 -0.019065,-0.0283 -0.036044,-0.0561 -0.050643,-0.0837 -0.014599,-0.0276 -0.026863,-0.0548 -0.037207,-0.0816 -0.010344,-0.0268 -0.018505,-0.0535 -0.024805,-0.0796 -0.0063,-0.0261 -0.010452,-0.0521 -0.012919,-0.0775 -0.00247,-0.0254 -0.00322,-0.0502 -0.00207,-0.0749 0.00115,-0.0247 0.00422,-0.0494 0.00878,-0.0734 0.00457,-0.024 0.010322,-0.0474 0.018087,-0.0708 0.00776,-0.0234 0.017152,-0.0465 0.027905,-0.0692 0.010753,-0.0227 0.02316,-0.0451 0.03669,-0.0672 0.01353,-0.0221 0.028346,-0.0437 0.044442,-0.0651 0.032192,-0.0428 0.069398,-0.0842 0.1105875,-0.12454 0.04119,-0.0403 0.086377,-0.0794 0.1348755,-0.1173 0.048499,-0.0379 0.1003942,-0.0749 0.1545126,-0.11059 0.054118,-0.0357 0.1104161,-0.0704 0.1684651,-0.10387 0.058049,-0.0335 0.1174761,-0.0658 0.177767,-0.0971 0.1205816,-0.0628 0.244387,-0.12125 0.363802,-0.17622 0.081586,-0.0375 0.1562937,-0.0712 0.2320272,-0.10542 -0.405398,-0.34322 -0.8270028,-0.65359 -1.265039,-0.92656 -1.628363,-1.01471 -3.4414614,-1.56507 -5.5133594,-1.6738 -0.732327,-0.0384 -0.856278,-0.057 -0.856278,-0.12712 0,-0.0896 0.877623,-1.10175 1.368909,-1.57871 0.647228,-0.62836 0.946027,-0.87119 1.661397,-1.34876 0.109168,-0.0729 0.219738,-0.14288 0.330729,-0.21136 -0.06582,-0.0102 -0.131535,-0.0191 -0.196887,-0.0305 -0.07513,-0.0131 -0.149435,-0.0272 -0.222726,-0.0429 -0.07329,-0.0157 -0.145355,-0.0334 -0.21549,-0.0527 -0.07014,-0.0194 -0.138452,-0.0406 -0.204122,-0.0646 -0.06567,-0.024 -0.128726,-0.0504 -0.188619,-0.0801 -0.02995,-0.0149 -0.05908,-0.0306 -0.08733,-0.047 -0.02826,-0.0165 -0.05576,-0.034 -0.08217,-0.0522 -0.0264,-0.0182 -0.05158,-0.0373 -0.07596,-0.0574 -0.02439,-0.0201 -0.04808,-0.0415 -0.07028,-0.0636 -0.0222,-0.0221 -0.04319,-0.045 -0.06305,-0.0693 -0.01986,-0.0242 -0.03846,-0.0495 -0.05581,-0.076 -0.01735,-0.0265 -0.03338,-0.0543 -0.04806,-0.0832 -0.01467,-0.0289 -0.02795,-0.059 -0.03979,-0.0904 -0.01184,-0.0314 -0.02217,-0.0641 -0.03101,-0.0982 -0.0088,-0.034 -0.01603,-0.0691 -0.0217,-0.10594 -0.0057,-0.0368 -0.01006,-0.0755 -0.0124,-0.11524 -0.0023,-0.0397 -0.0027,-0.0807 -0.0015,-0.1235 0.07495,-0.0125 0.158651,-0.0314 0.244946,-0.0553 0.08629,-0.0239 0.175139,-0.0526 0.260966,-0.0847 0.04291,-0.0161 0.08499,-0.0331 0.125574,-0.0506 0.04058,-0.0175 0.0795,-0.0357 0.116271,-0.0543 0.03677,-0.0185 0.07135,-0.0372 0.102837,-0.0563 0.03149,-0.0192 0.06002,-0.0385 0.08475,-0.0579 0.02473,-0.0194 0.04552,-0.0392 0.06201,-0.0584 0.01649,-0.0192 0.02888,-0.0378 0.03566,-0.0563 0.0034,-0.009 0.0055,-0.0183 0.0062,-0.0274 6.83e-4,-0.009 -3.78e-4,-0.0181 -0.0026,-0.0269 -0.0022,-0.009 -0.0056,-0.0174 -0.01085,-0.0258 -0.0053,-0.008 -0.01213,-0.0168 -0.02067,-0.0248 -0.01708,-0.0161 -0.04113,-0.0317 -0.07235,-0.046 -0.03122,-0.0143 -0.06995,-0.0272 -0.116789,-0.0393 -0.04684,-0.0121 -0.101944,-0.0232 -0.165881,-0.0326 -0.06394,-0.009 -0.136599,-0.0174 -0.219108,-0.0238 -0.132417,-0.005 -0.244441,-0.0134 -0.337964,-0.0238 -0.04676,-0.005 -0.08871,-0.0106 -0.126607,-0.0171 -0.0379,-0.006 -0.07167,-0.0136 -0.101286,-0.0212 -0.02961,-0.008 -0.0551,-0.016 -0.077,-0.0248 -0.0219,-0.009 -0.04002,-0.018 -0.05478,-0.0279 -0.01476,-0.01 -0.02643,-0.0205 -0.03462,-0.0315 -0.0082,-0.011 -0.01278,-0.0225 -0.01499,-0.0346 -0.0022,-0.0121 -0.0017,-0.0245 0.0015,-0.0377 0.0032,-0.0132 0.009,-0.0271 0.01705,-0.0413 0.0081,-0.0142 0.01817,-0.0287 0.03049,-0.0439 0.01232,-0.0152 0.02688,-0.0313 0.04289,-0.0475 0.03203,-0.0325 0.07084,-0.0666 0.114205,-0.10284 0.04336,-0.0363 0.09098,-0.0748 0.141076,-0.11472 0.0501,-0.0399 0.102789,-0.0812 0.15503,-0.12454 0.05224,-0.0433 0.104207,-0.0883 0.153995,-0.13488 0.04979,-0.0465 0.0973,-0.0946 0.140044,-0.14417 0.02137,-0.0248 0.04171,-0.0499 0.06046,-0.0754 0.01875,-0.0255 0.03561,-0.0513 0.05116,-0.0775 0.01555,-0.0262 0.02956,-0.0527 0.04134,-0.0796 0.01178,-0.0269 0.02151,-0.0541 0.02894,-0.0817 0.0074,-0.0275 0.01247,-0.0556 0.01499,-0.0837 0.0025,-0.0281 0.0025,-0.0565 -5.17e-4,-0.0853 -0.003,-0.0287 -0.009,-0.0575 -0.01809,-0.0868 -0.009,-0.0293 -0.021,-0.059 -0.03669,-0.0889 -0.01569,-0.0298 -0.03497,-0.0601 -0.05788,-0.0904 -0.02291,-0.0304 -0.0494,-0.0606 -0.0801,-0.0915 -0.02856,-0.0311 -0.06265,-0.061 -0.101286,-0.0894 -0.03863,-0.0284 -0.08198,-0.0557 -0.128674,-0.0822 -0.04669,-0.0264 -0.09662,-0.0519 -0.149345,-0.077 -0.05272,-0.0251 -0.108116,-0.0495 -0.164848,-0.0739 -0.113464,-0.0488 -0.232983,-0.0971 -0.350366,-0.14728 -0.05869,-0.0251 -0.116994,-0.0511 -0.173633,-0.0775 -0.05664,-0.0264 -0.111765,-0.0537 -0.164331,-0.0822 -0.05257,-0.0284 -0.102356,-0.0578 -0.148828,-0.0889 -0.04647,-0.0311 -0.08928,-0.0637 -0.127641,-0.0982 -0.01918,-0.0172 -0.03749,-0.035 -0.05426,-0.0532 -0.01677,-0.0182 -0.0324,-0.0366 -0.04651,-0.0558 -0.01411,-0.0192 -0.02653,-0.0391 -0.03772,-0.0594 -0.0112,-0.0204 -0.02091,-0.0415 -0.02894,-0.0631 -0.008,-0.0216 -0.01451,-0.0438 -0.01912,-0.0667 -0.0046,-0.0229 -0.0073,-0.0461 -0.0083,-0.0703 -9.42e-4,-0.0242 1.19e-4,-0.0492 0.0031,-0.0749 0.003,-0.0257 0.0078,-0.0523 0.01499,-0.0796 0.0072,-0.0272 0.01632,-0.0548 0.02791,-0.0837 0.01159,-0.0289 0.02559,-0.0588 0.04186,-0.0894 0.01627,-0.0306 0.03513,-0.0622 0.05633,-0.0946 0.0212,-0.0324 0.04493,-0.0655 0.07131,-0.0997 0.06386,-0.0603 0.129176,-0.11687 0.19637,-0.17002 0.06719,-0.0531 0.135976,-0.10277 0.206189,-0.14934 0.07021,-0.0466 0.14206,-0.0901 0.214974,-0.13074 0.07291,-0.0406 0.146912,-0.0784 0.222209,-0.11369 0.0753,-0.0353 0.151564,-0.0681 0.228926,-0.0987 0.07736,-0.0306 0.156018,-0.0592 0.235128,-0.0858 0.07911,-0.0265 0.158722,-0.0508 0.239262,-0.0739 0.08054,-0.0231 0.161744,-0.0448 0.243396,-0.0651 0.04557,-0.0113 0.09214,-0.0199 0.137976,-0.0305 -1.541336,-0.54524 -3.222836,-0.91547 -4.722709,-1.0294 -0.306122,-0.0232 -0.600664,-0.064 -0.654224,-0.0904 -0.06629,-0.0324 -0.80462,-0.0493 -1.531689,-0.0501 z" />
      <path
         style="fill:#d10000;fill-opacity:1;stroke:none;stroke-width:0.264583px;stroke-linecap:butt;stroke-linejoin:miter;stroke-opacity:1"
         d="m -38.326591,173.30208 c 0.469599,0.18241 0.938088,0.3619 1.432867,0.46517 0.547351,0.11424 0.955736,0.55618 1.502493,0.73054 0.423225,0.13497 0.855705,0.32934 1.322391,0.32934 h 2.884544 c 0.510387,0 2.208178,0.20161 2.696676,0.35755 0.405279,0.12937 1.9157,-0.72742 2.077598,-0.29926 0.3878,1.02553 0.166355,1.47013 0.04187,2.45145 -0.04159,0.32789 -0.434963,0.83875 -0.435185,1.15234 -2.47e-4,0.34981 0.285971,0.74279 0.691262,0.80124 0.523902,0.0756 1.035595,-0.23258 1.041766,-0.67111 0.0045,-0.31888 0.108642,-0.73613 0.02762,-1.06233 -0.07184,-0.28925 0.03334,-0.57876 0.04949,-0.93796 0.017,-0.3782 -0.02224,-0.83695 -0.119912,-1.20011 -0.29227,-1.08673 -0.314877,-1.13605 0.0056,-1.65159 0.172671,-0.27777 0.585641,-2.39854 0.680544,-2.73316 l -1.042985,-6.79559 -3.156883,-0.57887 -6.259833,6.88316 -0.993751,-0.96819 c -0.337295,-0.85888 -0.850757,-1.35079 -1.37717,-1.81573 l -1.305121,0.11803 z"
         id="path6362" />
      <path
         style="fill:#000001;stroke-width:0.040546"
         d="m -29.49678,174.59158 c -0.01165,-0.0189 -0.09952,-0.0225 -0.195257,-0.008 -0.106804,0.016 -0.18432,0.01 -0.200601,-0.0168 -0.01459,-0.0236 -0.07551,-0.042 -0.13537,-0.0408 -0.05986,0.001 -0.214813,-0.0173 -0.344339,-0.041 -0.129525,-0.0238 -0.253484,-0.0321 -0.275462,-0.0185 -0.02198,0.0136 -0.06197,0.007 -0.08886,-0.0143 -0.0485,-0.0386 -0.688504,-0.16801 -0.961195,-0.1943 -0.07805,-0.008 -0.242262,-0.0423 -0.364914,-0.0772 -0.122651,-0.035 -0.30511,-0.0715 -0.405461,-0.0811 -0.205147,-0.0197 -0.337909,-0.0422 -0.486552,-0.0823 -0.260768,-0.0704 -0.660549,-0.1387 -0.693361,-0.11842 -0.02006,0.0124 -0.05928,0.008 -0.08715,-0.0103 -0.02788,-0.018 -0.10542,-0.036 -0.172321,-0.0399 -0.0669,-0.004 -0.176375,-0.0197 -0.243276,-0.035 -0.176033,-0.0405 -0.447727,-0.0669 -0.756454,-0.0736 -0.148446,-0.003 -0.283767,-0.0196 -0.300716,-0.0363 -0.01695,-0.0167 -0.119864,-0.0304 -0.2287,-0.0304 h -0.197884 l 0.12172,-0.15205 c 0.06694,-0.0836 0.149164,-0.2181 0.182711,-0.29882 0.08628,-0.20764 0.155619,-1.25904 0.106071,-1.60838 -0.03498,-0.24662 -0.455631,-1.54494 -0.62119,-1.91727 l -0.06444,-0.14491 0.196762,-0.009 c 0.108218,-0.005 0.208676,0.0103 0.223239,0.0339 0.03747,0.0606 0.500144,0.0157 0.615325,-0.0598 0.05137,-0.0337 0.119068,-0.1112 0.150438,-0.17232 0.0562,-0.1095 0.143129,-0.47999 0.149737,-0.63822 0.0019,-0.0446 0.0067,-0.16319 0.01065,-0.26355 0.004,-0.10035 0.0223,-0.20571 0.04068,-0.23413 0.01838,-0.0284 0.02133,-0.10671 0.0065,-0.17398 -0.01608,-0.0732 -0.0077,-0.14539 0.02086,-0.1798 0.02812,-0.0339 0.03694,-0.10657 0.02149,-0.17694 -0.01544,-0.0703 -0.0081,-0.13062 0.01775,-0.14662 0.02419,-0.015 0.04413,-0.0851 0.0443,-0.15591 1.53e-4,-0.0708 0.01054,-0.21083 0.02304,-0.31118 0.01251,-0.10035 0.026,-0.2372 0.02999,-0.3041 0.004,-0.0669 0.02169,-0.14461 0.03933,-0.17268 0.01764,-0.0281 0.02103,-0.0858 0.0075,-0.12837 -0.0135,-0.0425 -0.0058,-0.0889 0.01704,-0.10301 0.02287,-0.0141 0.04104,-0.0658 0.0404,-0.11491 -0.0039,-0.2927 0.503294,-2.23296 0.616285,-2.35777 0.01918,-0.0212 0.03487,-0.064 0.03487,-0.0952 0,-0.0942 0.413681,-0.97294 0.566943,-1.20427 0.04432,-0.0669 0.09714,-0.15812 0.117378,-0.20272 0.06136,-0.13527 0.566502,-0.79773 0.772925,-1.01366 0.106594,-0.1115 0.205068,-0.23507 0.218829,-0.2746 0.01376,-0.0395 0.05736,-0.0841 0.0969,-0.0991 0.03953,-0.015 0.199879,-0.13864 0.356328,-0.27479 0.240998,-0.20974 0.653673,-0.5045 0.972475,-0.69461 0.228321,-0.13616 0.899888,-0.4615 0.952833,-0.4616 0.03345,-8e-5 0.115556,-0.0362 0.182456,-0.0804 0.0669,-0.0442 0.153406,-0.0702 0.192232,-0.0579 0.03883,0.0123 0.09356,0.008 0.121639,-0.01 0.04853,-0.0305 0.204363,-0.0487 0.443704,-0.0519 0.05986,-7.7e-4 0.121126,-0.0213 0.136147,-0.0456 0.01746,-0.0282 0.09728,-0.0346 0.221297,-0.0175 0.123063,0.0169 0.203869,0.0107 0.221022,-0.0171 0.03413,-0.0552 0.495309,-0.0579 0.529203,-0.003 0.01385,0.0224 0.101593,0.0381 0.194987,0.0349 0.29501,-0.0101 0.747446,0.13704 1.218319,0.39629 0.203902,0.11226 0.709704,0.62445 0.9311,0.94285 0.207042,0.29776 0.558022,0.97176 0.614556,1.18015 0.01513,0.0558 0.05403,0.16016 0.08647,0.23203 0.06696,0.14835 0.192195,0.60227 0.302831,1.09757 0.0413,0.18493 0.08387,0.35042 0.09459,0.36776 0.03051,0.0494 0.06759,0.25043 0.0864,0.4684 0.0095,0.10961 0.02947,0.23733 0.04448,0.28383 0.02864,0.0887 0.05191,0.26628 0.05464,0.41703 9.2e-4,0.0491 0.02015,0.10067 0.04279,0.11467 0.02318,0.0143 0.03018,0.084 0.01601,0.15955 -0.01473,0.0785 -0.0072,0.14517 0.01801,0.16078 0.02613,0.0162 0.03368,0.0959 0.01914,0.20203 -0.01457,0.10636 -0.007,0.18587 0.01925,0.2021 0.02651,0.0164 0.03428,0.10274 0.02005,0.22287 -0.01506,0.12717 -0.0069,0.20623 0.02332,0.22488 0.03095,0.0191 0.03768,0.0956 0.02008,0.22822 -0.01762,0.13284 -0.01,0.2193 0.02289,0.25891 0.03514,0.0423 0.04109,0.1475 0.02068,0.3654 -0.01957,0.20884 -0.01398,0.32364 0.01761,0.3617 0.04605,0.0555 0.04068,0.62737 -0.0071,0.75473 -0.01255,0.0334 -0.02506,0.0882 -0.02781,0.12163 -0.01665,0.20272 -0.03255,0.3136 -0.05525,0.38519 -0.01414,0.0446 -0.03378,0.1632 -0.04364,0.26355 -0.02319,0.23607 -0.281807,1.398 -0.392563,1.76376 -0.276606,0.91345 -0.274568,0.90815 -0.591825,1.54075 -0.292933,0.5841 -0.353771,0.68811 -0.554408,0.94788 -0.09263,0.11993 -0.20491,0.26846 -0.249511,0.33006 -0.119758,0.16541 -0.577042,0.53722 -0.93256,0.75825 -0.14249,0.0886 -0.562835,0.28317 -0.709557,0.32847 -0.308903,0.0954 -0.675151,0.17679 -0.790648,0.17578 -0.0669,-6.1e-4 -0.149007,0.009 -0.182458,0.0213 -0.100562,0.0369 -1.303559,0.036 -1.32642,-0.001 z m 3.488206,-2.53969 c 0.4118,-0.20846 0.601593,-0.53196 0.755002,-1.28687 0.09915,-0.48793 0.1129,-1.09483 0.04618,-2.03861 -0.113985,-1.61229 -0.467178,-2.63176 -1.166277,-3.36639 -0.259559,-0.27275 -0.391885,-0.37749 -0.589287,-0.46642 -0.463982,-0.20904 -0.832562,-0.17826 -1.134758,0.0948 -0.184132,0.16635 -0.285379,0.35283 -0.499553,0.9201 -0.143573,0.38028 -0.154282,0.44017 -0.172419,0.96421 -0.03676,1.0621 0.127666,2.02925 0.580535,3.41477 0.07289,0.223 0.144483,0.46296 0.159095,0.53323 0.04187,0.20135 0.490227,0.92577 0.659335,1.0653 0.364755,0.30096 0.953677,0.37269 1.36215,0.16592 z m -11.108746,1.5289 c -0.0832,-0.0173 -0.480148,-0.0447 -0.882116,-0.0608 l -0.730848,-0.0294 -0.214276,-0.34464 c -0.436243,-0.70165 -0.890694,-1.67265 -1.15757,-2.47331 -0.483913,-1.4518 -0.657297,-3.11783 -0.495809,-4.76417 0.08238,-0.83981 0.314857,-2.02582 0.45417,-2.31696 0.108663,-0.22708 0.306015,-0.42819 0.516269,-0.5261 0.261632,-0.12183 0.399678,-0.12119 0.611294,0.003 0.335678,0.19672 0.541484,0.58158 0.711493,1.33051 0.266873,1.17564 0.75216,2.63052 1.075456,3.22419 0.07632,0.14015 0.138773,0.27699 0.138787,0.3041 1.6e-5,0.0335 -0.06152,0.0453 -0.192596,0.0367 -0.157765,-0.0103 -0.227103,0.009 -0.383203,0.10933 -0.104821,0.0671 -0.241664,0.19907 -0.304094,0.29335 -0.111287,0.16806 -0.113512,0.18301 -0.113512,0.76241 0,1.49322 0.129726,2.15895 0.65638,3.36839 0.159559,0.36643 0.452098,0.89242 0.563758,1.01366 l 0.09336,0.10136 h -0.09784 c -0.05381,0 -0.165907,-0.0141 -0.249102,-0.0314 z"
         id="path6273" />
    </g>
  </g>
</svg>
