<?xml version="1.0" encoding="UTF-8" standalone="no"?>
<!-- Created with Inkscape (http://www.inkscape.org/) -->

<svg
   width="188.84399mm"
   height="188.84399mm"
   viewBox="0 0 188.844 188.844"
   version="1.1"
   id="svg301"
   inkscape:version="1.2.2 (b0a8486541, 2022-12-01)"
   sodipodi:docname="ac-adapter.svg"
   xmlns:inkscape="http://www.inkscape.org/namespaces/inkscape"
   xmlns:sodipodi="http://sodipodi.sourceforge.net/DTD/sodipodi-0.dtd"
   xmlns:xlink="http://www.w3.org/1999/xlink"
   xmlns="http://www.w3.org/2000/svg"
   xmlns:svg="http://www.w3.org/2000/svg">
  <sodipodi:namedview
     id="namedview303"
     pagecolor="#505050"
     bordercolor="#eeeeee"
     borderopacity="1"
     inkscape:showpageshadow="0"
     inkscape:pageopacity="0"
     inkscape:pagecheckerboard="0"
     inkscape:deskcolor="#505050"
     inkscape:document-units="mm"
     showgrid="false"
     showguides="true"
     inkscape:zoom="0.5946522"
     inkscape:cx="-114.35256"
     inkscape:cy="339.69436"
     inkscape:window-width="1920"
     inkscape:window-height="958"
     inkscape:window-x="0"
     inkscape:window-y="32"
     inkscape:window-maximized="1"
     inkscape:current-layer="layer1" />
  <defs
     id="defs298">
    <linearGradient
       inkscape:collect="always"
       id="linearGradient1147">
      <stop
         style="stop-color:#000000;stop-opacity:1;"
         offset="0"
         id="stop1143" />
      <stop
         style="stop-color:#1d1d1d;stop-opacity:1;"
         offset="1"
         id="stop1145" />
    </linearGradient>
    <linearGradient
       inkscape:collect="always"
       xlink:href="#linearGradient1147"
       id="linearGradient1149"
       x1="65.868729"
       y1="101.72218"
       x2="111.33782"
       y2="231.22154"
       gradientUnits="userSpaceOnUse" />
  </defs>
  <g
     inkscape:label="Calque 1"
     inkscape:groupmode="layer"
     id="layer1"
     transform="translate(-50.490204,-49.66708)">
    <g
       id="g2806"
       transform="translate(45.508334)">
      <rect
         style="fill:#cccccc;fill-opacity:1;stroke:none;stroke-width:4.99999;stroke-linecap:round"
         id="rect1290"
         width="11.642887"
         height="55.985718"
         x="71.400681"
         y="49.66708" />
      <rect
         style="fill:#cccccc;fill-opacity:1;stroke:none;stroke-width:4.99999;stroke-linecap:round"
         id="rect1292"
         width="11.642887"
         height="55.985718"
         x="124.31734"
         y="49.66708" />
      <path
         style="fill:url(#linearGradient1149);fill-opacity:1;stroke:none;stroke-width:0.264583px;stroke-linecap:butt;stroke-linejoin:miter;stroke-opacity:1"
         d="M 50.490204,88.586375 H 155.1424 v 60.189875 l -37.99994,65.81783 v 23.91746 H 88.308597 V 214.47268 L 50.556264,149.42577 Z"
         id="path476"
         sodipodi:nodetypes="ccccccccc" />
      <path
         style="fill:#ffffff;fill-opacity:1;stroke:#000000;stroke-width:0.264583px;stroke-linecap:butt;stroke-linejoin:miter;stroke-opacity:1"
         d="m 88.804953,108.68811 h 38.678387 l -27.1825,27.1825 h 29.56069 l -38.137228,38.13724 5.60796,-26.62937 H 76.278967 Z"
         id="path1348" />
    </g>
  </g>
</svg>
