<?xml version="1.0" encoding="UTF-8" standalone="no"?>
<!-- Created with Inkscape (http://www.inkscape.org/) -->

<svg
   width="88.818306mm"
   height="88.818001mm"
   viewBox="0 0 88.818306 88.818"
   version="1.1"
   id="svg5"
   xml:space="preserve"
   inkscape:version="1.2.2 (b0a8486541, 2022-12-01)"
   sodipodi:docname="folder-temp.svg"
   xmlns:inkscape="http://www.inkscape.org/namespaces/inkscape"
   xmlns:sodipodi="http://sodipodi.sourceforge.net/DTD/sodipodi-0.dtd"
   xmlns:xlink="http://www.w3.org/1999/xlink"
   xmlns="http://www.w3.org/2000/svg"
   xmlns:svg="http://www.w3.org/2000/svg"><sodipodi:namedview
     id="namedview7"
     pagecolor="#505050"
     bordercolor="#eeeeee"
     borderopacity="1"
     inkscape:showpageshadow="0"
     inkscape:pageopacity="0"
     inkscape:pagecheckerboard="0"
     inkscape:deskcolor="#505050"
     inkscape:document-units="mm"
     showgrid="false"
     showguides="true"
     inkscape:zoom="1.1893044"
     inkscape:cx="-82.821522"
     inkscape:cy="138.73656"
     inkscape:window-width="1920"
     inkscape:window-height="966"
     inkscape:window-x="0"
     inkscape:window-y="32"
     inkscape:window-maximized="1"
     inkscape:current-layer="layer2" /><defs
     id="defs2"><linearGradient
       inkscape:collect="always"
       id="linearGradient12293"><stop
         style="stop-color:#ffffff;stop-opacity:1;"
         offset="0"
         id="stop12289" /><stop
         style="stop-color:#b3b3b3;stop-opacity:1"
         offset="1"
         id="stop12291" /></linearGradient><linearGradient
       inkscape:collect="always"
       xlink:href="#linearGradient12293"
       id="linearGradient12295"
       x1="-18.403833"
       y1="39.493637"
       x2="14.925467"
       y2="72.822937"
       gradientUnits="userSpaceOnUse" /></defs><g
     inkscape:groupmode="layer"
     id="layer2"
     inkscape:label="Calque 2"
     transform="translate(-61.353696,-15.804607)"><path
       style="fill:#ef922a;fill-opacity:1;stroke:none;stroke-width:1.83498px;stroke-linecap:butt;stroke-linejoin:miter;stroke-opacity:1"
       d="m 69.294751,25.329607 -7.941055,11.12641 V 94.739653 H 150.172 V 36.208127 h -29.76608 l -6.19265,-10.725991 z"
       id="path3163"
       sodipodi:nodetypes="cccccccc" /><g
       id="g18995"
       transform="matrix(0.75306151,0,0,0.75306151,108.2523,22.327107)"><circle
         style="fill:url(#linearGradient12295);stroke:#000000;stroke-width:3;stroke-linecap:round;stroke-dasharray:none;stroke-opacity:1;fill-opacity:1"
         id="path18574"
         cx="-1.8541416"
         cy="55.639133"
         r="25.393801" /><path
         style="fill:none;stroke:#000000;stroke-width:3;stroke-linecap:round;stroke-linejoin:miter;stroke-dasharray:none;stroke-opacity:1"
         d="M -2.1646865,38.165033 V 56.963125 H 8.0737597"
         id="path18991" /></g></g></svg>
