<?xml version="1.0" encoding="UTF-8" standalone="no"?>
<!-- Created with Inkscape (http://www.inkscape.org/) -->

<svg
   width="163.69501mm"
   height="163.69501mm"
   viewBox="0 0 163.69501 163.69501"
   version="1.1"
   id="svg5022"
   inkscape:version="1.2.2 (b0a8486541, 2022-12-01)"
   sodipodi:docname="gnome-dev-trash-full.svg"
   xmlns:inkscape="http://www.inkscape.org/namespaces/inkscape"
   xmlns:sodipodi="http://sodipodi.sourceforge.net/DTD/sodipodi-0.dtd"
   xmlns:xlink="http://www.w3.org/1999/xlink"
   xmlns="http://www.w3.org/2000/svg"
   xmlns:svg="http://www.w3.org/2000/svg">
  <sodipodi:namedview
     id="namedview5024"
     pagecolor="#505050"
     bordercolor="#eeeeee"
     borderopacity="1"
     inkscape:showpageshadow="0"
     inkscape:pageopacity="0"
     inkscape:pagecheckerboard="0"
     inkscape:deskcolor="#505050"
     inkscape:document-units="mm"
     showgrid="false"
     inkscape:zoom="0.84096521"
     inkscape:cx="249.71306"
     inkscape:cy="279.44081"
     inkscape:window-width="1920"
     inkscape:window-height="958"
     inkscape:window-x="0"
     inkscape:window-y="32"
     inkscape:window-maximized="1"
     inkscape:current-layer="layer1" />
  <defs
     id="defs5019">
    <linearGradient
       inkscape:collect="always"
       id="linearGradient5857">
      <stop
         style="stop-color:#333333;stop-opacity:1;"
         offset="0"
         id="stop5853" />
      <stop
         style="stop-color:#414141;stop-opacity:1;"
         offset="1"
         id="stop5855" />
    </linearGradient>
    <linearGradient
       inkscape:collect="always"
       id="linearGradient5802">
      <stop
         style="stop-color:#b3b3b3;stop-opacity:1"
         offset="0"
         id="stop5798" />
      <stop
         style="stop-color:#808080;stop-opacity:1"
         offset="1"
         id="stop5800" />
    </linearGradient>
    <linearGradient
       inkscape:collect="always"
       xlink:href="#linearGradient5802"
       id="linearGradient5804"
       x1="52.440075"
       y1="149.3791"
       x2="149.33499"
       y2="149.3791"
       gradientUnits="userSpaceOnUse"
       gradientTransform="translate(15.875)" />
    <linearGradient
       inkscape:collect="always"
       xlink:href="#linearGradient5802"
       id="linearGradient5835"
       x1="82.622292"
       y1="142.87354"
       x2="57.867138"
       y2="142.87354"
       gradientUnits="userSpaceOnUse"
       gradientTransform="translate(15.875)" />
    <linearGradient
       inkscape:collect="always"
       xlink:href="#linearGradient5802"
       id="linearGradient5843"
       x1="114.70543"
       y1="141.32721"
       x2="89.617126"
       y2="141.32721"
       gradientUnits="userSpaceOnUse"
       gradientTransform="translate(15.875)" />
    <linearGradient
       inkscape:collect="always"
       xlink:href="#linearGradient5802"
       id="linearGradient5851"
       x1="146.25902"
       y1="139.54346"
       x2="121.36713"
       y2="139.54346"
       gradientUnits="userSpaceOnUse"
       gradientTransform="translate(15.875)" />
    <linearGradient
       inkscape:collect="always"
       xlink:href="#linearGradient5857"
       id="linearGradient5859"
       x1="69.780914"
       y1="75.696281"
       x2="145.25336"
       y2="75.696281"
       gradientUnits="userSpaceOnUse"
       gradientTransform="translate(11.641752,5.7094924)" />
  </defs>
  <g
     inkscape:label="Calque 1"
     inkscape:groupmode="layer"
     id="layer1"
     transform="translate(-37.339184,-56.147942)">
    <g
       id="g61708">
      <rect
         style="fill:none;stroke:#999999;stroke-width:5;stroke-linecap:round;stroke-dasharray:none;stroke-opacity:1"
         id="rect5796"
         width="33.537552"
         height="17.845234"
         x="97.654686"
         y="64.357437"
         rx="0"
         ry="6.1678019"
         transform="rotate(-3.0655269)" />
      <path
         id="rect5319"
         style="fill:url(#linearGradient5804);stroke-width:20;stroke-linecap:round"
         d="m 117.74787,76.92836 c 29.22132,0 52.15774,1.448259 52.74606,3.006488 17.91944,47.461212 16.2181,92.921412 0,136.901132 -0.57627,1.56272 -23.52474,3.00649 -52.74606,3.00649 -29.221322,0 -52.247122,-1.41739 -52.746065,-3.00649 -14.420632,-45.92881 -15.173316,-91.57792 0,-136.901132 0.528763,-1.579434 23.524743,-3.006488 52.746065,-3.006488 z"
         sodipodi:nodetypes="sssssss" />
      <rect
         style="fill:url(#linearGradient5835);fill-opacity:1;stroke:none;stroke-width:16.864;stroke-linecap:round"
         id="rect5736"
         width="25.155031"
         height="113.63517"
         x="73.742134"
         y="93.104637"
         rx="50.811043"
         ry="14.633587" />
      <rect
         style="fill:url(#linearGradient5843);fill-opacity:1;stroke:none;stroke-width:17.3181;stroke-linecap:round"
         id="rect5790"
         width="25.155031"
         height="119.83744"
         x="105.49211"
         y="90.003502"
         rx="50.811043"
         ry="15.432297" />
      <rect
         style="fill:url(#linearGradient5851);fill-opacity:1;stroke:none;stroke-width:16.864;stroke-linecap:round"
         id="rect5792"
         width="25.155031"
         height="113.63517"
         x="137.24213"
         y="93.104637"
         rx="50.811043"
         ry="14.633587" />
      <rect
         style="fill:url(#linearGradient5859);fill-opacity:1;stroke:none;stroke-width:20;stroke-linecap:round"
         id="rect5794"
         width="130.88506"
         height="15.556062"
         x="48.980942"
         y="74.497864"
         rx="0"
         ry="5.3766012"
         transform="rotate(-3.0655269)" />
      <path
         style="fill:#a51818;fill-opacity:1;stroke-width:0.277746"
         d="M 112.33771,175.79683 C 101.12081,173.21952 92.679802,164.4525 90.832866,153.46147 l -0.328408,-1.95437 -6.793022,0.8169 c -3.736157,0.44929 -6.87921,0.7307 -6.984562,0.62535 -0.105366,-0.10537 1.520977,-1.90733 3.614046,-4.00442 2.093068,-2.09707 3.805585,-3.88687 3.805585,-3.97729 0,-0.0904 -1.937283,-1.45055 -4.30506,-3.02247 -2.367792,-1.57192 -4.305075,-2.94652 -4.305075,-3.05468 0,-0.10814 2.268926,-0.65081 5.042025,-1.20588 2.773115,-0.55507 5.089996,-1.05719 5.148625,-1.11582 0.05869,-0.0587 -0.720098,-2.38372 -1.730509,-5.16685 -1.010411,-2.78314 -1.771207,-5.12615 -1.690642,-5.2067 0.08057,-0.0806 2.980537,1.57439 6.444404,3.67767 5.51579,3.34919 6.331011,3.76507 6.564035,3.34868 0.310877,-0.55551 1.563123,-2.06367 3.019093,-3.63612 l 1.028696,-1.11098 -0.560615,-3.14486 c -0.320336,-1.79693 -0.456189,-3.24612 -0.316978,-3.38114 0.134019,-0.13002 2.430906,-1.25856 5.104196,-2.50801 l 4.86057,-2.2717 1.99127,2.16837 1.9913,2.16837 5.50786,0.0306 5.50786,0.0307 2.10086,-2.21387 2.10086,-2.21389 4.98166,2.29782 c 2.7399,1.26382 5.09156,2.39938 5.22589,2.52349 0.13926,0.12863 -0.009,1.5756 -0.3425,3.36412 l -0.58679,3.1385 1.05425,1.11673 c 1.4174,1.50143 2.71888,3.05976 3.05084,3.65294 0.24152,0.43156 0.9974,0.0527 6.69545,-3.35613 3.53278,-2.11343 6.48488,-3.78095 6.56025,-3.70558 0.0753,0.0753 -0.69699,2.40682 -1.71635,5.18099 -1.01935,2.7742 -1.78832,5.10904 -1.70882,5.18854 0.0795,0.0795 2.37663,0.58517 5.10475,1.12373 2.72812,0.53855 5.00738,1.02637 5.06503,1.08399 0.24222,0.24224 -0.3953,0.72494 -4.03427,3.05461 -2.10778,1.34938 -4.01675,2.62229 -4.24218,2.82867 -0.35399,0.32408 0.13772,0.92377 3.60712,4.39939 4.69896,4.70737 5.04036,4.35165 -3.19725,3.33151 -7.75687,-0.96063 -7.26585,-1.01049 -7.50429,0.76207 -0.27752,2.06299 -1.42074,5.56723 -2.55983,7.84632 -2.82877,5.65989 -8.15254,10.62018 -14.08484,13.12319 -2.41789,1.02018 -6.13918,2.00888 -7.5728,2.01201 -0.96578,0.002 -0.88876,0.1505 -1.76483,-3.40043 l -0.32548,-1.3193 h -1.34506 c -1.49845,0 -1.30544,-0.29609 -2.21791,3.40238 -0.31587,1.28033 -0.35527,1.31847 -1.33404,1.29139 -0.55472,-0.0154 -1.50852,-0.1428 -2.11957,-0.28316 z m 3.74958,-15.76449 v -4.41024 l -0.84278,-0.34908 c -1.08537,-0.44958 -2.82586,-2.43212 -3.73258,-4.25168 l -0.71163,-1.42803 0.0743,7.07745 0.0742,7.07745 1.5276,0.32041 c 0.84018,0.17622 1.9963,0.33245 2.56915,0.34717 l 1.04154,0.0268 z m 7.49914,4.03628 1.5276,-0.32041 0.0721,-6.94365 0.0721,-6.94363 -0.55699,1.11097 c -0.8185,1.6326 -2.68594,3.68976 -3.92181,4.32025 l -1.08123,0.55159 v 4.29942 4.29942 l 1.18043,-0.0268 c 0.64924,-0.0154 1.86784,-0.17096 2.70802,-0.34719 z m -15.92899,-14.81435 c -0.0592,-0.0591 -1.24874,0.0444 -2.64361,0.23016 l -2.5361,0.33765 v 5.02148 c 0,5.74592 -0.36062,4.97095 3.19408,6.86414 l 1.94421,1.03548 0.0744,-6.69069 c 0.041,-3.67989 0.026,-6.73908 -0.0331,-6.79822 z m 24.89969,11.36836 1.16702,-0.78348 0.0756,-5.02198 0.0756,-5.02199 -1.74203,-0.19021 c -0.95813,-0.1046 -2.21073,-0.26203 -2.78358,-0.3498 l -1.04155,-0.15961 v 6.83677 6.83677 l 1.541,-0.68151 c 0.84755,-0.37482 2.06617,-1.03405 2.70803,-1.46496 z m 6.32177,-6.87327 c 0.43265,-0.91655 0.86946,-2.01018 0.9707,-2.43027 0.15389,-0.63838 0.0937,-0.7638 -0.36683,-0.7638 -0.30299,0 -0.94147,-0.0781 -1.41884,-0.17359 l -0.86795,-0.17358 0.008,3.15935 c 0.0108,3.58615 0.14681,3.61737 1.6741,0.38189 z m -39.734129,-0.40021 c 0,-1.51859 -0.09936,-2.82248 -0.220808,-2.89755 -0.121388,-0.075 -0.755498,-0.0649 -1.408987,0.0229 -1.112188,0.14912 -1.177441,0.2057 -1.020439,0.88388 0.254883,1.10102 2.089326,4.75184 2.387664,4.75184 0.147267,0 0.26257,-1.21189 0.26257,-2.76106 z m 12.434269,-10.16739 c 5.14586,-2.15006 4.18334,-9.81022 -1.29888,-10.33699 -2.4636,-0.23672 -4.63907,0.97131 -5.6139,3.11737 -2.00545,4.41501 2.46098,9.07971 6.91278,7.21962 z m 17.22025,0 c 5.13217,-2.14435 4.1701,-9.81148 -1.29706,-10.3368 -3.3312,-0.32009 -6.13778,2.12655 -6.13778,5.35065 0,3.79123 3.95178,6.44148 7.43484,4.98615 z"
         id="path114126"
         inkscape:label="logoeggman" />
    </g>
  </g>
</svg>
