<?xml version="1.0" encoding="UTF-8" standalone="no"?>
<!-- Created with Inkscape (http://www.inkscape.org/) -->

<svg
   width="13.030892mm"
   height="1.852527mm"
   viewBox="0 0 13.030892 1.8525271"
   version="1.1"
   id="svg4349"
   inkscape:version="1.2.2 (b0a8486541, 2022-12-01)"
   sodipodi:docname="maximize.svg"
   xmlns:inkscape="http://www.inkscape.org/namespaces/inkscape"
   xmlns:sodipodi="http://sodipodi.sourceforge.net/DTD/sodipodi-0.dtd"
   xmlns="http://www.w3.org/2000/svg"
   xmlns:svg="http://www.w3.org/2000/svg">
  <sodipodi:namedview
     id="namedview4351"
     pagecolor="#505050"
     bordercolor="#eeeeee"
     borderopacity="1"
     inkscape:showpageshadow="0"
     inkscape:pageopacity="0"
     inkscape:pagecheckerboard="false"
     inkscape:deskcolor="#505050"
     inkscape:document-units="px"
     showgrid="true"
     inkscape:zoom="22.627417"
     inkscape:cx="19.688504"
     inkscape:cy="2.8726213"
     inkscape:window-width="1920"
     inkscape:window-height="966"
     inkscape:window-x="0"
     inkscape:window-y="32"
     inkscape:window-maximized="1"
     inkscape:current-layer="layer1">
    <inkscape:grid
       type="xygrid"
       id="grid4879"
       originx="-22.489582"
       originy="-37.041667" />
  </sodipodi:namedview>
  <defs
     id="defs4346">
    <filter
       inkscape:label="Combined Lighting"
       inkscape:menu="Bevels"
       inkscape:menu-tooltip="Basic specular bevel to use for building textures"
       style="color-interpolation-filters:sRGB"
       id="filter980"
       x="-0.19164395"
       y="-0.27115953"
       width="1.3832879"
       height="1.5423191">
      <feGaussianBlur
         stdDeviation="6"
         in="SourceGraphic"
         result="result0"
         id="feGaussianBlur962" />
      <feDiffuseLighting
         lighting-color="#ffffff"
         diffuseConstant="1"
         surfaceScale="4"
         result="result5"
         id="feDiffuseLighting966">
        <feDistantLight
           elevation="45"
           azimuth="235"
           id="feDistantLight964" />
      </feDiffuseLighting>
      <feComposite
         k1="1.4"
         in2="SourceGraphic"
         in="result5"
         result="fbSourceGraphic"
         operator="arithmetic"
         id="feComposite968"
         k2="0"
         k3="0"
         k4="0" />
      <feGaussianBlur
         result="result0"
         in="fbSourceGraphic"
         stdDeviation="6"
         id="feGaussianBlur970" />
      <feSpecularLighting
         specularExponent="25"
         specularConstant="1"
         surfaceScale="4"
         lighting-color="#ffffff"
         result="result1"
         in="result0"
         id="feSpecularLighting974">
        <feDistantLight
           azimuth="235"
           elevation="45"
           id="feDistantLight972" />
      </feSpecularLighting>
      <feComposite
         k3="1"
         k2="1"
         operator="arithmetic"
         in="fbSourceGraphic"
         in2="result1"
         result="result4"
         id="feComposite976"
         k1="0"
         k4="0" />
      <feComposite
         operator="in"
         result="result2"
         in2="SourceGraphic"
         in="result4"
         id="feComposite978" />
    </filter>
  </defs>
  <g
     inkscape:label="Calque 1"
     inkscape:groupmode="layer"
     id="layer1"
     transform="translate(-22.489585,-37.041665)">
    <path
       id="inactive-center"
       style="fill:#ff6600;fill-opacity:1;stroke:none;stroke-width:0.00445942px;stroke-linecap:butt;stroke-linejoin:miter;stroke-opacity:1"
       d="m 30.933139,37.041665 -0.506055,0.541941 1.223775,1.310568 v 1.8e-5 l 8e-6,-9e-6 8e-6,9e-6 c 0.407901,-0.436869 0.815843,-0.873729 1.223767,-1.310587 l -0.506047,-0.54194 c -0.478485,0 -0.956971,0 -1.435456,0 z"
       sodipodi:nodetypes="ccccccccc"
       inkscape:label="#inactive-center" />
    <path
       id="deactivated-center"
       style="fill:#aa4400;fill-opacity:1;stroke:none;stroke-width:0.00445942px;stroke-linecap:butt;stroke-linejoin:miter;stroke-opacity:1"
       d="m 33.578973,37.041665 -0.506055,0.541941 1.223775,1.310568 v 1.8e-5 l 8e-6,-9e-6 9e-6,9e-6 c 0.4079,-0.436869 0.815842,-0.873729 1.223766,-1.310587 l -0.506047,-0.54194 c -0.478485,0 -0.95697,0 -1.435456,0 z"
       sodipodi:nodetypes="ccccccccc"
       inkscape:label="#deactivated-center" />
    <g
       id="active-center"
       inkscape:label="#active-center"
       transform="translate(-0.52291445,-0.50233163)">
      <path
         id="path7091"
         style="fill:#aa4400;fill-opacity:1;stroke:none;stroke-width:0.00445942px;stroke-linecap:butt;stroke-linejoin:miter;stroke-opacity:1"
         d="m 23.518606,37.543997 -0.506055,0.54194 1.223774,1.310568 v 1.8e-5 l 9e-6,-9e-6 8e-6,9e-6 c 0.407901,-0.436869 0.815843,-0.873729 1.223766,-1.310586 l -0.506046,-0.54194 c -0.478485,0 -0.956971,0 -1.435456,0 z"
         sodipodi:nodetypes="ccccccccc"
         inkscape:label="#active-center" />
      <path
         id="path410"
         style="fill:#ff9955;fill-opacity:1;stroke:none;stroke-width:0.00445942px;stroke-linecap:butt;stroke-linejoin:miter;stroke-opacity:1"
         inkscape:label="#active-center"
         d="m 24.955583,37.545511 -0.0016,-0.0015 h -1.435571 l -0.505913,0.542086 0.0021,0.0021 1.202386,0.0076 z"
         sodipodi:nodetypes="ccccccc" />
      <path
         id="path408"
         style="fill:#ff6600;fill-opacity:1;stroke:none;stroke-width:0.00387772px;stroke-linecap:butt;stroke-linejoin:miter;stroke-opacity:1"
         d="m 23.612229,37.616866 -0.440044,0.471247 1.06414,1.139614 v 1.5e-5 l 9e-6,-8e-6 6e-6,8e-6 c 0.354693,-0.379882 0.709422,-0.759756 1.064134,-1.139629 l -0.440035,-0.471247 c -0.41607,0 -0.832141,0 -1.24821,0 z"
         sodipodi:nodetypes="ccccccccc"
         inkscape:label="#active-center" />
    </g>
    <g
       id="hover-center"
       inkscape:label="#hover-center"
       transform="translate(2.1229188,-0.50233163)">
      <path
         id="path1031"
         style="fill:#aa4400;fill-opacity:1;stroke:none;stroke-width:0.00445942px;stroke-linecap:butt;stroke-linejoin:miter;stroke-opacity:1"
         d="m 23.518606,37.543997 -0.506055,0.54194 1.223774,1.310568 v 1.8e-5 l 9e-6,-9e-6 8e-6,9e-6 c 0.407901,-0.436869 0.815843,-0.873729 1.223766,-1.310586 l -0.506046,-0.54194 c -0.478485,0 -0.956971,0 -1.435456,0 z"
         sodipodi:nodetypes="ccccccccc"
         inkscape:label="#active-center" />
      <path
         id="path1033"
         style="fill:#ff9955;fill-opacity:1;stroke:none;stroke-width:0.00445942px;stroke-linecap:butt;stroke-linejoin:miter;stroke-opacity:1"
         inkscape:label="#active-center"
         d="m 24.955583,37.545511 -0.0016,-0.0015 h -1.435571 l -0.505913,0.542086 0.0021,0.0021 1.202386,0.0076 z"
         sodipodi:nodetypes="ccccccc" />
      <path
         id="path1035"
         style="fill:#ff6600;fill-opacity:1;stroke:none;stroke-width:0.00387772px;stroke-linecap:butt;stroke-linejoin:miter;stroke-opacity:1"
         d="m 23.612229,37.616866 -0.440044,0.471247 1.06414,1.139614 v 1.5e-5 l 9e-6,-8e-6 6e-6,8e-6 c 0.354693,-0.379882 0.709422,-0.759756 1.064134,-1.139629 l -0.440035,-0.471247 c -0.41607,0 -0.832141,0 -1.24821,0 z"
         sodipodi:nodetypes="ccccccccc"
         inkscape:label="#active-center" />
      <path
         id="path1037"
         style="fill:#ffffff;fill-opacity:1;stroke:none;stroke-width:0.00114568px;stroke-linecap:butt;stroke-linejoin:miter;stroke-opacity:1"
         d="m 24.051938,38.079879 -0.130012,0.139231 0.314403,0.336702 v 4e-6 l 2e-6,-10e-7 2e-6,10e-7 c 0.104795,-0.112237 0.2096,-0.224471 0.314401,-0.336706 l -0.13001,-0.139231 c -0.122929,0 -0.245857,0 -0.368786,0 z"
         sodipodi:nodetypes="ccccccccc"
         inkscape:label="#active-center" />
    </g>
    <g
       id="pressed-center"
       inkscape:label="#pressed-center"
       transform="translate(4.768752,-0.50233163)">
      <path
         id="path1041"
         style="fill:#ff6600;fill-opacity:1;stroke:none;stroke-width:0.00445942px;stroke-linecap:butt;stroke-linejoin:miter;stroke-opacity:1"
         d="m 23.518606,37.543997 -0.506055,0.54194 1.223774,1.310568 v 1.8e-5 l 9e-6,-9e-6 8e-6,9e-6 c 0.407901,-0.436869 0.815843,-0.873729 1.223766,-1.310586 l -0.506046,-0.54194 c -0.478485,0 -0.956971,0 -1.435456,0 z"
         sodipodi:nodetypes="ccccccccc"
         inkscape:label="#active-center" />
      <path
         id="path1043"
         style="fill:#ff6600;fill-opacity:1;stroke:none;stroke-width:0.00445942px;stroke-linecap:butt;stroke-linejoin:miter;stroke-opacity:1"
         inkscape:label="#active-center"
         d="m 24.955583,37.545511 -0.0016,-0.0015 h -1.435571 l -0.505913,0.542086 0.0021,0.0021 1.202386,0.0076 z"
         sodipodi:nodetypes="ccccccc" />
      <path
         id="path1045"
         style="fill:#aa4400;fill-opacity:1;stroke:none;stroke-width:0.00387772px;stroke-linecap:butt;stroke-linejoin:miter;stroke-opacity:1"
         d="m 23.612229,37.616866 -0.440044,0.471247 1.06414,1.139614 v 1.5e-5 l 9e-6,-8e-6 6e-6,8e-6 c 0.354693,-0.379882 0.709422,-0.759756 1.064134,-1.139629 l -0.440035,-0.471247 c -0.41607,0 -0.832141,0 -1.24821,0 z"
         sodipodi:nodetypes="ccccccccc"
         inkscape:label="#active-center" />
      <path
         id="path1047"
         style="fill:#ffffff;fill-opacity:1;stroke:none;stroke-width:0.00114568px;stroke-linecap:butt;stroke-linejoin:miter;stroke-opacity:1"
         d="m 24.051938,38.079879 -0.130012,0.139231 0.314403,0.336702 v 4e-6 l 2e-6,-10e-7 2e-6,10e-7 c 0.104795,-0.112237 0.2096,-0.224471 0.314401,-0.336706 l -0.13001,-0.139231 c -0.122929,0 -0.245857,0 -0.368786,0 z"
         sodipodi:nodetypes="ccccccccc"
         inkscape:label="#active-center" />
    </g>
  </g>
</svg>
