<?xml version="1.0" encoding="UTF-8" standalone="no"?>
<!-- Created with Inkscape (http://www.inkscape.org/) -->

<svg
   width="153.005mm"
   height="153.005mm"
   viewBox="0 0 153.005 153.005"
   version="1.1"
   id="svg53520"
   xml:space="preserve"
   inkscape:version="1.2.2 (b0a8486541, 2022-12-01)"
   sodipodi:docname="battery-070-charging.svg"
   xmlns:inkscape="http://www.inkscape.org/namespaces/inkscape"
   xmlns:sodipodi="http://sodipodi.sourceforge.net/DTD/sodipodi-0.dtd"
   xmlns:xlink="http://www.w3.org/1999/xlink"
   xmlns="http://www.w3.org/2000/svg"
   xmlns:svg="http://www.w3.org/2000/svg"><sodipodi:namedview
     id="namedview53522"
     pagecolor="#505050"
     bordercolor="#eeeeee"
     borderopacity="1"
     inkscape:showpageshadow="0"
     inkscape:pageopacity="0"
     inkscape:pagecheckerboard="0"
     inkscape:deskcolor="#505050"
     inkscape:document-units="mm"
     showgrid="false"
     inkscape:zoom="1.6819304"
     inkscape:cx="196.5004"
     inkscape:cy="351.38196"
     inkscape:window-width="1920"
     inkscape:window-height="966"
     inkscape:window-x="0"
     inkscape:window-y="32"
     inkscape:window-maximized="1"
     inkscape:current-layer="layer1" /><defs
     id="defs53517"><linearGradient
       inkscape:collect="always"
       xlink:href="#linearGradient1147"
       id="linearGradient1149"
       x1="65.868729"
       y1="101.72218"
       x2="111.33782"
       y2="231.22154"
       gradientUnits="userSpaceOnUse" /><linearGradient
       inkscape:collect="always"
       id="linearGradient1147"><stop
         style="stop-color:#008000;stop-opacity:1"
         offset="0"
         id="stop1143" /><stop
         style="stop-color:#00ff00;stop-opacity:1"
         offset="1"
         id="stop1145" /></linearGradient></defs><g
     inkscape:label="Calque 1"
     inkscape:groupmode="layer"
     id="layer1"
     transform="translate(-31.279188,-78.978263)"><g
       id="g65119"
       transform="matrix(7.6610296,0,0,7.6610296,-784.73368,-806.28155)"><rect
         style="fill:none;fill-opacity:1;stroke:#000000;stroke-width:0.275;stroke-dasharray:none;stroke-opacity:1"
         id="rect63895"
         width="14.907215"
         height="5.7628531"
         x="109.16988"
         y="122.87679" /><rect
         style="fill:#afb2b9;fill-opacity:1;stroke-width:0.0750001"
         id="rect61282"
         width="2.3919506"
         height="5.0255475"
         x="106.51478"
         y="123.2645"
         rx="0.29918179" /><rect
         style="fill:#7e7f82;fill-opacity:1;stroke-width:0.0750001"
         id="rect53705"
         width="1.0929804"
         height="6.3213501"
         x="107.32384"
         y="122.59904"
         rx="0.40000001" /><rect
         style="fill:#3b3e41;fill-opacity:1;stroke-width:0.0648634"
         id="rect56053"
         width="0.81749952"
         height="6.3213501"
         x="108.54809"
         y="122.59904"
         rx="0.29918179" /><rect
         style="fill:#afb2b9;fill-opacity:1;stroke-width:0.0750001"
         id="rect63837"
         width="2.3919506"
         height="5.0255475"
         x="-126.48666"
         y="123.2645"
         rx="0.29918179"
         transform="scale(-1,1)" /><rect
         style="fill:#7e7f82;fill-opacity:1;stroke-width:0.0750001"
         id="rect63839"
         width="1.0929804"
         height="6.3213501"
         x="-125.6776"
         y="122.59904"
         rx="0.40000001"
         transform="scale(-1,1)" /><rect
         style="fill:#3b3e41;fill-opacity:1;stroke-width:0.0648634"
         id="rect63841"
         width="0.81749952"
         height="6.3213501"
         x="-124.45335"
         y="122.59904"
         rx="0.29918179"
         transform="scale(-1,1)" /><path
         id="path64322"
         style="fill:#00ff00;fill-opacity:0.504196;stroke:none;stroke-width:0.165;stroke-linecap:butt;stroke-linejoin:miter;stroke-dasharray:none;stroke-opacity:1"
         d="m 118.75545,124.53641 -2.74703,-0.97858 -4.9568,2.22467 5.04775,2.30736 2.64183,-0.99209 z"
         sodipodi:nodetypes="cccccc" /><path
         style="fill:none;stroke:#707070;stroke-width:0.165;stroke-linecap:butt;stroke-linejoin:miter;stroke-dasharray:none;stroke-opacity:1"
         d="m 111.05139,125.78276 4.95729,-2.22507 6.24807,2.20598 -6.15713,2.32623 z"
         id="path64320" /><path
         style="fill:#ffffff;fill-opacity:0.495466;stroke:none;stroke-width:0.264583px;stroke-linecap:butt;stroke-linejoin:miter;stroke-opacity:1"
         d="m 120.89546,124.06975 c -3.33779,2.12241 -6.51543,2.97939 -9.18687,2.95718 3.16767,-0.36321 6.2228,-1.53253 9.18687,-2.95718 z"
         id="path64318"
         sodipodi:nodetypes="ccc" /><path
         style="fill:#ffffff;fill-opacity:0.504196;stroke:none;stroke-width:0.264583px;stroke-linecap:butt;stroke-linejoin:miter;stroke-opacity:1"
         d="m 109.73602,123.53988 9.71111,0.0519 c -3.49472,0.42957 -8.51233,0.12807 -9.72501,1.65314 z"
         id="path64314"
         sodipodi:nodetypes="cccc" /><path
         style="fill:#ffffff;fill-opacity:0.504196;stroke:none;stroke-width:0.264583px;stroke-linecap:butt;stroke-linejoin:miter;stroke-opacity:1"
         d="m 123.13162,128.07778 -9.71111,-0.0519 c 3.42665,-0.45858 7.42733,-0.59042 9.72501,-1.65314 z"
         id="path64316"
         sodipodi:nodetypes="cccc" /></g><g
       id="g2806"
       transform="matrix(0.37629666,0,0,0.37629666,65.470636,100.68011)"><rect
         style="fill:#cccccc;fill-opacity:1;stroke:none;stroke-width:4.99999;stroke-linecap:round"
         id="rect1290"
         width="11.642887"
         height="55.985718"
         x="71.400681"
         y="49.66708" /><rect
         style="fill:#cccccc;fill-opacity:1;stroke:none;stroke-width:4.99999;stroke-linecap:round"
         id="rect1292"
         width="11.642887"
         height="55.985718"
         x="124.31734"
         y="49.66708" /><path
         style="fill:url(#linearGradient1149);fill-opacity:1;stroke:none;stroke-width:0.264583px;stroke-linecap:butt;stroke-linejoin:miter;stroke-opacity:1"
         d="M 50.490204,88.586375 H 155.1424 v 60.189875 l -37.99994,65.81783 v 23.91746 H 88.308597 V 214.47268 L 50.556264,149.42577 Z"
         id="path476"
         sodipodi:nodetypes="ccccccccc" /><path
         style="fill:#ffffff;fill-opacity:1;stroke:#000000;stroke-width:0.264583px;stroke-linecap:butt;stroke-linejoin:miter;stroke-opacity:1"
         d="m 88.804953,108.68811 h 38.678387 l -27.1825,27.1825 h 29.56069 l -38.137228,38.13724 5.60796,-26.62937 H 76.278967 Z"
         id="path1348" /></g></g></svg>
